2014-06-02 20:42:22 [INFO] [ForgeModLoader] Forge Mod Loader version 6.4.45.953 for Minecraft 1.6.4 loading
2014-06-02 20:42:22 [INFO] [ForgeModLoader] Java is Java HotSpot(TM) 64-Bit Server VM, version 1.6.0_65, running on Mac OS X:x86_64:10.9.2, installed at /System/Library/Java/JavaVirtualMachines/1.6.0.jdk/Contents/Home
2014-06-02 20:42:22 [FINE] [ForgeModLoader] Java classpath at launch is /Users/luke/Desktop/Youth Digital/Mod Design 1/My Mod 1/mcp/eclipse/Minecraft/bin:/Users/luke/Desktop/Youth Digital/Mod Design 1/My Mod 1/mcp/jars/libraries/org/ow2/asm/asm-debug-all/4.1/asm-debug-all-4.1.jar:/Users/luke/Desktop/Youth Digital/Mod Design 1/My Mod 1/mcp/jars/libraries/net/minecraft/launchwrapper/1.8/launchwrapper-1.8.jar:/Users/luke/Desktop/Youth Digital/Mod Design 1/My Mod 1/mcp/jars/versions/1.6.4/1.6.4.jar:/Users/luke/Desktop/Youth Digital/Mod Design 1/My Mod 1/mcp/jars/libraries/lzma/lzma/0.0.1/lzma-0.0.1.jar:/Users/luke/Desktop/Youth Digital/Mod Design 1/My Mod 1/mcp/jars/libraries/net/sf/jopt-simple/jopt-simple/4.5/jopt-simple-4.5.jar:/Users/luke/Desktop/Youth Digital/Mod Design 1/My Mod 1/mcp/jars/libraries/com/paulscode/codecjorbis/20101023/codecjorbis-20101023.jar:/Users/luke/Desktop/Youth Digital/Mod Design 1/My Mod 1/mcp/jars/libraries/com/paulscode/codecwav/20101023/codecwav-20101023.jar:/Users/luke/Desktop/Youth Digital/Mod Design 1/My Mod 1/mcp/jars/libraries/com/paulscode/libraryjavasound/20101123/libraryjavasound-20101123.jar:/Users/luke/Desktop/Youth Digital/Mod Design 1/My Mod 1/mcp/jars/libraries/com/paulscode/librarylwjglopenal/20100824/librarylwjglopenal-20100824.jar:/Users/luke/Desktop/Youth Digital/Mod Design 1/My Mod 1/mcp/jars/libraries/com/paulscode/soundsystem/20120107/soundsystem-20120107.jar:/Users/luke/Desktop/Youth Digital/Mod Design 1/My Mod 1/mcp/jars/libraries/argo/argo/2.25_fixed/argo-2.25_fixed.jar:/Users/luke/Desktop/Youth Digital/Mod Design 1/My Mod 1/mcp/jars/libraries/org/bouncycastle/bcprov-jdk15on/1.47/bcprov-jdk15on-1.47.jar:/Users/luke/Desktop/Youth Digital/Mod Design 1/My Mod 1/mcp/jars/libraries/com/google/guava/guava/14.0/guava-14.0.jar:/Users/luke/Desktop/Youth Digital/Mod Design 1/My Mod 1/mcp/jars/libraries/org/apache/commons/commons-lang3/3.1/commons-lang3-3.1.jar:/Users/luke/Desktop/Youth Digital/Mod Design 1/My Mod 1/mcp/jars/libraries/commons-io/commons-io/2.4/commons-io-2.4.jar:/Users/luke/Desktop/Youth Digital/Mod Design 1/My Mod 1/mcp/jars/libraries/net/java/jutils/jutils/1.0.0/jutils-1.0.0.jar:/Users/luke/Desktop/Youth Digital/Mod Design 1/My Mod 1/mcp/jars/libraries/com/google/code/gson/gson/2.2.2/gson-2.2.2.jar:/Users/luke/Desktop/Youth Digital/Mod Design 1/My Mod 1/mcp/jars/libraries/net/java/jinput/jinput/2.0.5/jinput-2.0.5.jar:/Users/luke/Desktop/Youth Digital/Mod Design 1/My Mod 1/mcp/jars/libraries/org/lwjgl/lwjgl/lwjgl/2.9.0/lwjgl-2.9.0.jar:/Users/luke/Desktop/Youth Digital/Mod Design 1/My Mod 1/mcp/jars/libraries/org/lwjgl/lwjgl/lwjgl_util/2.9.0/lwjgl_util-2.9.0.jar
2014-06-02 20:42:22 [FINE] [ForgeModLoader] Java library path at launch is /Users/luke/Desktop/Youth Digital/Mod Design 1/My Mod 1/mcp/jars/versions/1.6.4/1.6.4-natives
2014-06-02 20:42:22 [INFO] [ForgeModLoader] Managed to load a deobfuscated Minecraft name- we are in a deobfuscated environment. Skipping runtime deobfuscation
2014-06-02 20:42:22 [FINE] [ForgeModLoader] Instantiating coremod class FMLCorePlugin
2014-06-02 20:42:22 [FINE] [ForgeModLoader] Enqueued coremod FMLCorePlugin
2014-06-02 20:42:22 [FINE] [ForgeModLoader] Instantiating coremod class FMLForgePlugin
2014-06-02 20:42:22 [FINE] [ForgeModLoader] Enqueued coremod FMLForgePlugin
2014-06-02 20:42:22 [FINE] [ForgeModLoader] All fundamental core mods are successfully located
2014-06-02 20:42:22 [FINE] [ForgeModLoader] Discovering coremods
2014-06-02 20:42:22 [INFO] [ForgeModLoader] Loading tweak class name cpw.mods.fml.common.launcher.FMLInjectionAndSortingTweaker
2014-06-02 20:42:22 [INFO] [ForgeModLoader] Loading tweak class name cpw.mods.fml.common.launcher.FMLDeobfTweaker
2014-06-02 20:42:22 [INFO] [ForgeModLoader] Calling tweak class cpw.mods.fml.common.launcher.FMLInjectionAndSortingTweaker
2014-06-02 20:42:22 [INFO] [ForgeModLoader] Calling tweak class cpw.mods.fml.common.launcher.FMLInjectionAndSortingTweaker
2014-06-02 20:42:22 [INFO] [ForgeModLoader] Calling tweak class cpw.mods.fml.relauncher.CoreModManager$FMLPluginWrapper
2014-06-02 20:42:22 [FINE] [ForgeModLoader] Injecting coremod FMLCorePlugin {cpw.mods.fml.relauncher.FMLCorePlugin} class transformers
2014-06-02 20:42:22 [FINEST] [ForgeModLoader] Registering transformer cpw.mods.fml.common.asm.transformers.AccessTransformer
2014-06-02 20:42:22 [INFO] [STDOUT] Loaded 40 rules from AccessTransformer config file fml_at.cfg
2014-06-02 20:42:22 [FINEST] [ForgeModLoader] Registering transformer cpw.mods.fml.common.asm.transformers.MarkerTransformer
2014-06-02 20:42:22 [FINEST] [ForgeModLoader] Registering transformer cpw.mods.fml.common.asm.transformers.SideTransformer
2014-06-02 20:42:22 [FINE] [ForgeModLoader] Injection complete
2014-06-02 20:42:22 [FINE] [ForgeModLoader] Running coremod plugin for FMLCorePlugin {cpw.mods.fml.relauncher.FMLCorePlugin}
2014-06-02 20:42:22 [FINE] [ForgeModLoader] Running coremod plugin FMLCorePlugin
2014-06-02 20:42:22 [SEVERE] [ForgeModLoader] The binary patch set is missing. Either you are in a development environment, or things are not going to work!
2014-06-02 20:42:22 [FINE] [ForgeModLoader] Coremod plugin class FMLCorePlugin run successfully
2014-06-02 20:42:22 [INFO] [ForgeModLoader] Calling tweak class cpw.mods.fml.relauncher.CoreModManager$FMLPluginWrapper
2014-06-02 20:42:22 [FINE] [ForgeModLoader] Injecting coremod FMLForgePlugin {net.minecraftforge.classloading.FMLForgePlugin} class transformers
2014-06-02 20:42:22 [FINEST] [ForgeModLoader] Registering transformer net.minecraftforge.transformers.ForgeAccessTransformer
2014-06-02 20:42:22 [INFO] [STDOUT] Loaded 110 rules from AccessTransformer config file forge_at.cfg
2014-06-02 20:42:22 [FINEST] [ForgeModLoader] Registering transformer net.minecraftforge.transformers.EventTransformer
2014-06-02 20:42:22 [FINE] [ForgeModLoader] Injection complete
2014-06-02 20:42:22 [FINE] [ForgeModLoader] Running coremod plugin for FMLForgePlugin {net.minecraftforge.classloading.FMLForgePlugin}
2014-06-02 20:42:22 [FINE] [ForgeModLoader] Running coremod plugin FMLForgePlugin
2014-06-02 20:42:22 [FINE] [ForgeModLoader] Coremod plugin class FMLForgePlugin run successfully
2014-06-02 20:42:22 [INFO] [ForgeModLoader] Calling tweak class cpw.mods.fml.common.launcher.FMLDeobfTweaker
2014-06-02 20:42:22 [FINE] [ForgeModLoader] Validating minecraft
2014-06-02 20:42:23 [FINE] [ForgeModLoader] Minecraft validated, launching...
2014-06-02 20:42:23 [INFO] [ForgeModLoader] Launching wrapped minecraft {net.minecraft.client.main.Main}
2014-06-02 20:42:24 [INFO] [Minecraft-Client] Setting user: ydStudent
2014-06-02 20:42:24 [INFO] [Minecraft-Client] LWJGL Version: 2.9.0
2014-06-02 20:42:25 [INFO] [Minecraft-Client] Reloading ResourceManager: Default
2014-06-02 20:42:25 [INFO] [MinecraftForge] Attempting early MinecraftForge initialization
2014-06-02 20:42:25 [INFO] [STDOUT] MinecraftForge v9.11.1.953 Initialized
2014-06-02 20:42:25 [INFO] [ForgeModLoader] MinecraftForge v9.11.1.953 Initialized
2014-06-02 20:42:25 [INFO] [STDOUT] Replaced 112 ore recipies
2014-06-02 20:42:25 [INFO] [MinecraftForge] Completed early MinecraftForge initialization
2014-06-02 20:42:25 [INFO] [ForgeModLoader] Reading custom logging properties from /Users/luke/Desktop/Youth Digital/Mod Design 1/My Mod 1/mcp/jars/config/logging.properties
2014-06-02 20:42:25 [OFF] [ForgeModLoader] Logging level for ForgeModLoader logging is set to ALL
2014-06-02 20:42:25 [FINE] [ForgeModLoader] Building injected Mod Containers [cpw.mods.fml.common.FMLDummyContainer, net.minecraftforge.common.ForgeDummyContainer]
2014-06-02 20:42:25 [FINE] [ForgeModLoader] Attempting to load mods contained in the minecraft jar file and associated classes
2014-06-02 20:42:25 [FINE] [ForgeModLoader] Found a minecraft related directory at /Users/luke/Desktop/Youth Digital/Mod Design 1/My Mod 1/mcp/eclipse/Minecraft/bin, examining for mod candidates
2014-06-02 20:42:25 [FINE] [ForgeModLoader] Found a minecraft related file at /Users/luke/Desktop/Youth Digital/Mod Design 1/My Mod 1/mcp/jars/libraries/org/ow2/asm/asm-debug-all/4.1/asm-debug-all-4.1.jar, examining for mod candidates
2014-06-02 20:42:25 [FINE] [ForgeModLoader] Found a minecraft related file at /Users/luke/Desktop/Youth Digital/Mod Design 1/My Mod 1/mcp/jars/libraries/net/minecraft/launchwrapper/1.8/launchwrapper-1.8.jar, examining for mod candidates
2014-06-02 20:42:25 [FINE] [ForgeModLoader] Found a minecraft related file at /Users/luke/Desktop/Youth Digital/Mod Design 1/My Mod 1/mcp/jars/versions/1.6.4/1.6.4.jar, examining for mod candidates
2014-06-02 20:42:25 [FINE] [ForgeModLoader] Found a minecraft related file at /Users/luke/Desktop/Youth Digital/Mod Design 1/My Mod 1/mcp/jars/libraries/lzma/lzma/0.0.1/lzma-0.0.1.jar, examining for mod candidates
2014-06-02 20:42:25 [FINE] [ForgeModLoader] Found a minecraft related file at /Users/luke/Desktop/Youth Digital/Mod Design 1/My Mod 1/mcp/jars/libraries/net/sf/jopt-simple/jopt-simple/4.5/jopt-simple-4.5.jar, examining for mod candidates
2014-06-02 20:42:25 [FINE] [ForgeModLoader] Found a minecraft related file at /Users/luke/Desktop/Youth Digital/Mod Design 1/My Mod 1/mcp/jars/libraries/com/paulscode/codecjorbis/20101023/codecjorbis-20101023.jar, examining for mod candidates
2014-06-02 20:42:25 [FINE] [ForgeModLoader] Found a minecraft related file at /Users/luke/Desktop/Youth Digital/Mod Design 1/My Mod 1/mcp/jars/libraries/com/paulscode/codecwav/20101023/codecwav-20101023.jar, examining for mod candidates
2014-06-02 20:42:25 [FINE] [ForgeModLoader] Found a minecraft related file at /Users/luke/Desktop/Youth Digital/Mod Design 1/My Mod 1/mcp/jars/libraries/com/paulscode/libraryjavasound/20101123/libraryjavasound-20101123.jar, examining for mod candidates
2014-06-02 20:42:25 [FINE] [ForgeModLoader] Found a minecraft related file at /Users/luke/Desktop/Youth Digital/Mod Design 1/My Mod 1/mcp/jars/libraries/com/paulscode/librarylwjglopenal/20100824/librarylwjglopenal-20100824.jar, examining for mod candidates
2014-06-02 20:42:25 [FINE] [ForgeModLoader] Found a minecraft related file at /Users/luke/Desktop/Youth Digital/Mod Design 1/My Mod 1/mcp/jars/libraries/com/paulscode/soundsystem/20120107/soundsystem-20120107.jar, examining for mod candidates
2014-06-02 20:42:25 [FINE] [ForgeModLoader] Found a minecraft related file at /Users/luke/Desktop/Youth Digital/Mod Design 1/My Mod 1/mcp/jars/libraries/argo/argo/2.25_fixed/argo-2.25_fixed.jar, examining for mod candidates
2014-06-02 20:42:25 [FINE] [ForgeModLoader] Found a minecraft related file at /Users/luke/Desktop/Youth Digital/Mod Design 1/My Mod 1/mcp/jars/libraries/org/bouncycastle/bcprov-jdk15on/1.47/bcprov-jdk15on-1.47.jar, examining for mod candidates
2014-06-02 20:42:25 [FINE] [ForgeModLoader] Found a minecraft related file at /Users/luke/Desktop/Youth Digital/Mod Design 1/My Mod 1/mcp/jars/libraries/com/google/guava/guava/14.0/guava-14.0.jar, examining for mod candidates
2014-06-02 20:42:25 [FINE] [ForgeModLoader] Found a minecraft related file at /Users/luke/Desktop/Youth Digital/Mod Design 1/My Mod 1/mcp/jars/libraries/org/apache/commons/commons-lang3/3.1/commons-lang3-3.1.jar, examining for mod candidates
2014-06-02 20:42:25 [FINE] [ForgeModLoader] Found a minecraft related file at /Users/luke/Desktop/Youth Digital/Mod Design 1/My Mod 1/mcp/jars/libraries/commons-io/commons-io/2.4/commons-io-2.4.jar, examining for mod candidates
2014-06-02 20:42:25 [FINE] [ForgeModLoader] Found a minecraft related file at /Users/luke/Desktop/Youth Digital/Mod Design 1/My Mod 1/mcp/jars/libraries/net/java/jutils/jutils/1.0.0/jutils-1.0.0.jar, examining for mod candidates
2014-06-02 20:42:25 [FINE] [ForgeModLoader] Found a minecraft related file at /Users/luke/Desktop/Youth Digital/Mod Design 1/My Mod 1/mcp/jars/libraries/com/google/code/gson/gson/2.2.2/gson-2.2.2.jar, examining for mod candidates
2014-06-02 20:42:25 [FINE] [ForgeModLoader] Found a minecraft related file at /Users/luke/Desktop/Youth Digital/Mod Design 1/My Mod 1/mcp/jars/libraries/net/java/jinput/jinput/2.0.5/jinput-2.0.5.jar, examining for mod candidates
2014-06-02 20:42:25 [FINE] [ForgeModLoader] Found a minecraft related file at /Users/luke/Desktop/Youth Digital/Mod Design 1/My Mod 1/mcp/jars/libraries/org/lwjgl/lwjgl/lwjgl/2.9.0/lwjgl-2.9.0.jar, examining for mod candidates
2014-06-02 20:42:25 [FINE] [ForgeModLoader] Found a minecraft related file at /Users/luke/Desktop/Youth Digital/Mod Design 1/My Mod 1/mcp/jars/libraries/org/lwjgl/lwjgl/lwjgl_util/2.9.0/lwjgl_util-2.9.0.jar, examining for mod candidates
2014-06-02 20:42:25 [FINE] [ForgeModLoader] Minecraft jar mods loaded successfully
2014-06-02 20:42:25 [INFO] [ForgeModLoader] Searching /Users/luke/Desktop/Youth Digital/Mod Design 1/My Mod 1/mcp/jars/mods for mods
2014-06-02 20:42:25 [FINE] [ForgeModLoader] Examining directory bin for potential mods
2014-06-02 20:42:25 [FINE] [ForgeModLoader] No mcmod.info file found in directory bin
2014-06-02 20:42:25 [FINEST] [ForgeModLoader] Recursing into package TEMPLATES
2014-06-02 20:42:25 [FINEST] [ForgeModLoader] Recursing into package TEMPLATES.CODE
2014-06-02 20:42:25 [FINEST] [ForgeModLoader] Recursing into package TEMPLATES.CODE.ARMOR
2014-06-02 20:42:25 [FINEST] [ForgeModLoader] Recursing into package TEMPLATES.CODE.BIOME
2014-06-02 20:42:25 [FINEST] [ForgeModLoader] Recursing into package TEMPLATES.CODE.BLOCKS
2014-06-02 20:42:25 [FINEST] [ForgeModLoader] Recursing into package TEMPLATES.CODE.BONUS
2014-06-02 20:42:25 [FINEST] [ForgeModLoader] Recursing into package TEMPLATES.CODE.ENTITY
2014-06-02 20:42:25 [FINEST] [ForgeModLoader] Recursing into package TEMPLATES.CODE.ENTITY.DEFAULT
2014-06-02 20:42:25 [FINEST] [ForgeModLoader] Recursing into package TEMPLATES.CODE.ENTITY.DEFAULT.CHICKEN
2014-06-02 20:42:25 [FINEST] [ForgeModLoader] Recursing into package TEMPLATES.CODE.ENTITY.DEFAULT.COW
2014-06-02 20:42:25 [FINEST] [ForgeModLoader] Recursing into package TEMPLATES.CODE.ENTITY.DEFAULT.CREEPER
2014-06-02 20:42:25 [FINEST] [ForgeModLoader] Recursing into package TEMPLATES.CODE.ENTITY.DEFAULT.ENDERMAN
2014-06-02 20:42:25 [FINEST] [ForgeModLoader] Recursing into package TEMPLATES.CODE.ENTITY.DEFAULT.GHAST
2014-06-02 20:42:25 [FINEST] [ForgeModLoader] Recursing into package TEMPLATES.CODE.ENTITY.DEFAULT.PIG
2014-06-02 20:42:25 [FINEST] [ForgeModLoader] Recursing into package TEMPLATES.CODE.ENTITY.DEFAULT.SKELETON
2014-06-02 20:42:25 [FINEST] [ForgeModLoader] Recursing into package TEMPLATES.CODE.ENTITY.DEFAULT.SPIDER
2014-06-02 20:42:25 [FINEST] [ForgeModLoader] Recursing into package TEMPLATES.CODE.ENTITY.DEFAULT.WOLF
2014-06-02 20:42:25 [FINEST] [ForgeModLoader] Recursing into package TEMPLATES.CODE.ENTITY.DEFAULT.ZOMBIE
2014-06-02 20:42:25 [FINEST] [ForgeModLoader] Recursing into package TEMPLATES.CODE.ENTITY.YOUTHDIGITAL
2014-06-02 20:42:25 [FINEST] [ForgeModLoader] Recursing into package TEMPLATES.CODE.ENTITY.YOUTHDIGITAL.ABE
2014-06-02 20:42:25 [FINEST] [ForgeModLoader] Recursing into package TEMPLATES.CODE.ENTITY.YOUTHDIGITAL.FOURM
2014-06-02 20:42:25 [FINEST] [ForgeModLoader] Recursing into package TEMPLATES.CODE.ENTITY.YOUTHDIGITAL.MECHNE
2014-06-02 20:42:25 [FINEST] [ForgeModLoader] Recursing into package TEMPLATES.CODE.ENTITY.YOUTHDIGITAL.MINION
2014-06-02 20:42:25 [FINEST] [ForgeModLoader] Recursing into package TEMPLATES.CODE.ENTITY.YOUTHDIGITAL.OGRE
2014-06-02 20:42:25 [FINEST] [ForgeModLoader] Recursing into package TEMPLATES.CODE.ENTITY.YOUTHDIGITAL.THREED
2014-06-02 20:42:25 [FINEST] [ForgeModLoader] Recursing into package TEMPLATES.CODE.ENTITY.YOUTHDIGITAL.TOBO
2014-06-02 20:42:25 [FINEST] [ForgeModLoader] Recursing into package TEMPLATES.CODE.ENTITY.YOUTHDIGITAL.WRAITH
2014-06-02 20:42:25 [FINEST] [ForgeModLoader] Recursing into package TEMPLATES.CODE.INTERFACE
2014-06-02 20:42:25 [FINEST] [ForgeModLoader] Recursing into package TEMPLATES.CODE.INTERFACE.ACHIEVEMENT
2014-06-02 20:42:25 [FINEST] [ForgeModLoader] Recursing into package TEMPLATES.CODE.INTERFACE.CREATIVETAB
2014-06-02 20:42:25 [FINEST] [ForgeModLoader] Recursing into package TEMPLATES.CODE.ITEMS
2014-06-02 20:42:25 [FINEST] [ForgeModLoader] Recursing into package TEMPLATES.CODE.ITEMS.FOOD
2014-06-02 20:42:25 [FINEST] [ForgeModLoader] Recursing into package TEMPLATES.CODE.ITEMS.ITEM
2014-06-02 20:42:25 [FINEST] [ForgeModLoader] Recursing into package TEMPLATES.CODE.ITEMS.PICKAXE
2014-06-02 20:42:25 [FINEST] [ForgeModLoader] Recursing into package TEMPLATES.CODE.ITEMS.SWORD
2014-06-02 20:42:25 [FINEST] [ForgeModLoader] Recursing into package TEMPLATES.IMAGES
2014-06-02 20:42:25 [FINEST] [ForgeModLoader] Recursing into package TEMPLATES.IMAGES.ARMOR
2014-06-02 20:42:25 [FINEST] [ForgeModLoader] Recursing into package TEMPLATES.IMAGES.BLOCKS
2014-06-02 20:42:25 [FINEST] [ForgeModLoader] Recursing into package TEMPLATES.IMAGES.EXTRA
2014-06-02 20:42:25 [FINEST] [ForgeModLoader] Recursing into package TEMPLATES.IMAGES.EXTRA.BLANK
2014-06-02 20:42:25 [FINEST] [ForgeModLoader] Recursing into package TEMPLATES.IMAGES.EXTRA.BLOCKS
2014-06-02 20:42:25 [FINEST] [ForgeModLoader] Recursing into package TEMPLATES.IMAGES.EXTRA.ITEMS
2014-06-02 20:42:25 [FINEST] [ForgeModLoader] Recursing into package TEMPLATES.IMAGES.EXTRA.ITEMS.FOOD
2014-06-02 20:42:25 [FINEST] [ForgeModLoader] Recursing into package TEMPLATES.IMAGES.EXTRA.ITEMS.MATERIALS
2014-06-02 20:42:25 [FINEST] [ForgeModLoader] Recursing into package TEMPLATES.IMAGES.EXTRA.ITEMS.OTHER
2014-06-02 20:42:25 [FINEST] [ForgeModLoader] Recursing into package TEMPLATES.IMAGES.EXTRA.ITEMS.TOOLS
2014-06-02 20:42:25 [FINEST] [ForgeModLoader] Recursing into package TEMPLATES.IMAGES.ITEMS
2014-06-02 20:42:25 [FINEST] [ForgeModLoader] Recursing into package TROUBLESHOOTING
2014-06-02 20:42:25 [FINEST] [ForgeModLoader] Recursing into package assets
2014-06-02 20:42:25 [FINEST] [ForgeModLoader] Recursing into package assets.mymod
2014-06-02 20:42:25 [FINEST] [ForgeModLoader] Recursing into package assets.mymod.textures
2014-06-02 20:42:25 [FINEST] [ForgeModLoader] Recursing into package assets.mymod.textures.armor
2014-06-02 20:42:25 [FINEST] [ForgeModLoader] Recursing into package assets.mymod.textures.blocks
2014-06-02 20:42:25 [FINEST] [ForgeModLoader] Recursing into package assets.mymod.textures.entity
2014-06-02 20:42:25 [FINEST] [ForgeModLoader] Recursing into package assets.mymod.textures.items
2014-06-02 20:42:25 [FINEST] [ForgeModLoader] Recursing into package assets.troublemod
2014-06-02 20:42:25 [FINEST] [ForgeModLoader] Recursing into package assets.troublemod.textures
2014-06-02 20:42:25 [FINEST] [ForgeModLoader] Recursing into package cpw
2014-06-02 20:42:25 [FINEST] [ForgeModLoader] Recursing into package cpw.mods
2014-06-02 20:42:25 [FINEST] [ForgeModLoader] Recursing into package cpw.mods.fml
2014-06-02 20:42:25 [FINEST] [ForgeModLoader] Recursing into package cpw.mods.fml.client
2014-06-02 20:42:25 [FINEST] [ForgeModLoader] Recursing into package cpw.mods.fml.client.modloader
2014-06-02 20:42:25 [FINEST] [ForgeModLoader] Recursing into package cpw.mods.fml.client.registry
2014-06-02 20:42:25 [FINEST] [ForgeModLoader] Recursing into package cpw.mods.fml.common
2014-06-02 20:42:25 [FINEST] [ForgeModLoader] Recursing into package cpw.mods.fml.common.asm
2014-06-02 20:42:25 [FINEST] [ForgeModLoader] Recursing into package cpw.mods.fml.common.asm.transformers
2014-06-02 20:42:25 [FINEST] [ForgeModLoader] Recursing into package cpw.mods.fml.common.asm.transformers.deobf
2014-06-02 20:42:25 [FINEST] [ForgeModLoader] Recursing into package cpw.mods.fml.common.discovery
2014-06-02 20:42:25 [FINEST] [ForgeModLoader] Recursing into package cpw.mods.fml.common.discovery.asm
2014-06-02 20:42:25 [FINEST] [ForgeModLoader] Recursing into package cpw.mods.fml.common.event
2014-06-02 20:42:25 [FINEST] [ForgeModLoader] Recursing into package cpw.mods.fml.common.functions
2014-06-02 20:42:25 [FINEST] [ForgeModLoader] Recursing into package cpw.mods.fml.common.launcher
2014-06-02 20:42:25 [FINEST] [ForgeModLoader] Recursing into package cpw.mods.fml.common.modloader
2014-06-02 20:42:25 [FINEST] [ForgeModLoader] Recursing into package cpw.mods.fml.common.network
2014-06-02 20:42:25 [FINEST] [ForgeModLoader] Recursing into package cpw.mods.fml.common.patcher
2014-06-02 20:42:25 [FINEST] [ForgeModLoader] Recursing into package cpw.mods.fml.common.registry
2014-06-02 20:42:25 [FINEST] [ForgeModLoader] Recursing into package cpw.mods.fml.common.toposort
2014-06-02 20:42:25 [FINEST] [ForgeModLoader] Recursing into package cpw.mods.fml.common.versioning
2014-06-02 20:42:25 [FINEST] [ForgeModLoader] Recursing into package cpw.mods.fml.relauncher
2014-06-02 20:42:25 [FINEST] [ForgeModLoader] Recursing into package cpw.mods.fml.repackage
2014-06-02 20:42:25 [FINEST] [ForgeModLoader] Recursing into package cpw.mods.fml.repackage.com
2014-06-02 20:42:25 [FINEST] [ForgeModLoader] Recursing into package cpw.mods.fml.repackage.com.nothome
2014-06-02 20:42:25 [FINEST] [ForgeModLoader] Recursing into package cpw.mods.fml.repackage.com.nothome.delta
2014-06-02 20:42:25 [FINEST] [ForgeModLoader] Recursing into package cpw.mods.fml.server
2014-06-02 20:42:25 [FINEST] [ForgeModLoader] Recursing into package ibxm
2014-06-02 20:42:25 [FINEST] [ForgeModLoader] Recursing into package mymod
2014-06-02 20:42:25 [FINE] [ForgeModLoader] Identified an FMLMod type mod mymod.Main
2014-06-02 20:42:25 [FINEST] [mymod] Parsed dependency info : [] [] []
2014-06-02 20:42:25 [FINEST] [ForgeModLoader] Recursing into package mymod.armor
2014-06-02 20:42:25 [FINEST] [ForgeModLoader] Recursing into package mymod.biome
2014-06-02 20:42:25 [FINEST] [ForgeModLoader] Recursing into package mymod.blocks
2014-06-02 20:42:25 [FINEST] [ForgeModLoader] Recursing into package mymod.entity
2014-06-02 20:42:25 [FINEST] [ForgeModLoader] Recursing into package mymod.entity.creeper
2014-06-02 20:42:25 [FINEST] [ForgeModLoader] Recursing into package mymod.entity.minion
2014-06-02 20:42:25 [FINEST] [ForgeModLoader] Recursing into package mymod.entity.zombie
2014-06-02 20:42:25 [FINEST] [ForgeModLoader] Recursing into package mymod.handlers
2014-06-02 20:42:25 [FINEST] [ForgeModLoader] Recursing into package mymod.items
2014-06-02 20:42:25 [FINEST] [ForgeModLoader] Recursing into package mymod.proxies
2014-06-02 20:42:25 [FINEST] [ForgeModLoader] Recursing into package net
2014-06-02 20:42:25 [FINEST] [ForgeModLoader] Recursing into package net.minecraft
2014-06-02 20:42:25 [FINEST] [ForgeModLoader] Recursing into package net.minecraft.block
2014-06-02 20:42:25 [FINEST] [ForgeModLoader] Recursing into package net.minecraft.block.material
2014-06-02 20:42:25 [FINEST] [ForgeModLoader] Recursing into package net.minecraft.client
2014-06-02 20:42:25 [FINEST] [ForgeModLoader] Recursing into package net.minecraft.client.audio
2014-06-02 20:42:25 [FINEST] [ForgeModLoader] Recursing into package net.minecraft.client.entity
2014-06-02 20:42:25 [FINEST] [ForgeModLoader] Recursing into package net.minecraft.client.gui
2014-06-02 20:42:26 [FINEST] [ForgeModLoader] Recursing into package net.minecraft.client.gui.achievement
2014-06-02 20:42:26 [FINEST] [ForgeModLoader] Recursing into package net.minecraft.client.gui.inventory
2014-06-02 20:42:26 [FINEST] [ForgeModLoader] Recursing into package net.minecraft.client.gui.mco
2014-06-02 20:42:26 [FINEST] [ForgeModLoader] Recursing into package net.minecraft.client.main
2014-06-02 20:42:26 [FINEST] [ForgeModLoader] Recursing into package net.minecraft.client.mco
2014-06-02 20:42:26 [FINEST] [ForgeModLoader] Recursing into package net.minecraft.client.model
2014-06-02 20:42:26 [FINEST] [ForgeModLoader] Recursing into package net.minecraft.client.multiplayer
2014-06-02 20:42:26 [FINEST] [ForgeModLoader] Recursing into package net.minecraft.client.particle
2014-06-02 20:42:26 [FINEST] [ForgeModLoader] Recursing into package net.minecraft.client.renderer
2014-06-02 20:42:26 [FINEST] [ForgeModLoader] Recursing into package net.minecraft.client.renderer.culling
2014-06-02 20:42:26 [FINEST] [ForgeModLoader] Recursing into package net.minecraft.client.renderer.entity
2014-06-02 20:42:26 [FINEST] [ForgeModLoader] Recursing into package net.minecraft.client.renderer.texture
2014-06-02 20:42:26 [FINEST] [ForgeModLoader] Recursing into package net.minecraft.client.renderer.tileentity
2014-06-02 20:42:26 [FINEST] [ForgeModLoader] Recursing into package net.minecraft.client.resources
2014-06-02 20:42:26 [FINEST] [ForgeModLoader] Recursing into package net.minecraft.client.resources.data
2014-06-02 20:42:26 [FINEST] [ForgeModLoader] Recursing into package net.minecraft.client.settings
2014-06-02 20:42:26 [FINEST] [ForgeModLoader] Recursing into package net.minecraft.client.stats
2014-06-02 20:42:26 [FINEST] [ForgeModLoader] Recursing into package net.minecraft.command
2014-06-02 20:42:26 [FINEST] [ForgeModLoader] Recursing into package net.minecraft.crash
2014-06-02 20:42:26 [FINEST] [ForgeModLoader] Recursing into package net.minecraft.creativetab
2014-06-02 20:42:26 [FINEST] [ForgeModLoader] Recursing into package net.minecraft.dispenser
2014-06-02 20:42:26 [FINEST] [ForgeModLoader] Recursing into package net.minecraft.enchantment
2014-06-02 20:42:26 [FINEST] [ForgeModLoader] Recursing into package net.minecraft.entity
2014-06-02 20:42:26 [FINEST] [ForgeModLoader] Recursing into package net.minecraft.entity.ai
2014-06-02 20:42:26 [FINEST] [ForgeModLoader] Recursing into package net.minecraft.entity.ai.attributes
2014-06-02 20:42:26 [FINEST] [ForgeModLoader] Recursing into package net.minecraft.entity.boss
2014-06-02 20:42:26 [FINEST] [ForgeModLoader] Recursing into package net.minecraft.entity.effect
2014-06-02 20:42:26 [FINEST] [ForgeModLoader] Recursing into package net.minecraft.entity.item
2014-06-02 20:42:26 [FINEST] [ForgeModLoader] Recursing into package net.minecraft.entity.monster
2014-06-02 20:42:26 [FINEST] [ForgeModLoader] Recursing into package net.minecraft.entity.passive
2014-06-02 20:42:26 [FINEST] [ForgeModLoader] Recursing into package net.minecraft.entity.player
2014-06-02 20:42:26 [FINEST] [ForgeModLoader] Recursing into package net.minecraft.entity.projectile
2014-06-02 20:42:26 [FINEST] [ForgeModLoader] Recursing into package net.minecraft.inventory
2014-06-02 20:42:26 [FINEST] [ForgeModLoader] Recursing into package net.minecraft.item
2014-06-02 20:42:26 [FINEST] [ForgeModLoader] Recursing into package net.minecraft.item.crafting
2014-06-02 20:42:26 [FINEST] [ForgeModLoader] Recursing into package net.minecraft.logging
2014-06-02 20:42:26 [FINEST] [ForgeModLoader] Recursing into package net.minecraft.nbt
2014-06-02 20:42:26 [FINEST] [ForgeModLoader] Recursing into package net.minecraft.network
2014-06-02 20:42:26 [FINEST] [ForgeModLoader] Recursing into package net.minecraft.network.packet
2014-06-02 20:42:26 [FINEST] [ForgeModLoader] Recursing into package net.minecraft.network.rcon
2014-06-02 20:42:26 [FINEST] [ForgeModLoader] Recursing into package net.minecraft.pathfinding
2014-06-02 20:42:26 [FINEST] [ForgeModLoader] Recursing into package net.minecraft.potion
2014-06-02 20:42:26 [FINEST] [ForgeModLoader] Recursing into package net.minecraft.profiler
2014-06-02 20:42:26 [FINEST] [ForgeModLoader] Recursing into package net.minecraft.scoreboard
2014-06-02 20:42:26 [FINEST] [ForgeModLoader] Recursing into package net.minecraft.server
2014-06-02 20:42:26 [FINEST] [ForgeModLoader] Recursing into package net.minecraft.server.dedicated
2014-06-02 20:42:26 [FINEST] [ForgeModLoader] Recursing into package net.minecraft.server.gui
2014-06-02 20:42:26 [FINEST] [ForgeModLoader] Recursing into package net.minecraft.server.integrated
2014-06-02 20:42:26 [FINEST] [ForgeModLoader] Recursing into package net.minecraft.server.management
2014-06-02 20:42:26 [FINEST] [ForgeModLoader] Recursing into package net.minecraft.src
2014-06-02 20:42:26 [FINEST] [ForgeModLoader] Recursing into package net.minecraft.stats
2014-06-02 20:42:26 [FINEST] [ForgeModLoader] Recursing into package net.minecraft.tileentity
2014-06-02 20:42:26 [FINEST] [ForgeModLoader] Recursing into package net.minecraft.util
2014-06-02 20:42:26 [FINEST] [ForgeModLoader] Recursing into package net.minecraft.village
2014-06-02 20:42:26 [FINEST] [ForgeModLoader] Recursing into package net.minecraft.world
2014-06-02 20:42:26 [FINEST] [ForgeModLoader] Recursing into package net.minecraft.world.biome
2014-06-02 20:42:26 [FINEST] [ForgeModLoader] Recursing into package net.minecraft.world.chunk
2014-06-02 20:42:26 [FINEST] [ForgeModLoader] Recursing into package net.minecraft.world.chunk.storage
2014-06-02 20:42:26 [FINEST] [ForgeModLoader] Recursing into package net.minecraft.world.demo
2014-06-02 20:42:26 [FINEST] [ForgeModLoader] Recursing into package net.minecraft.world.gen
2014-06-02 20:42:26 [FINEST] [ForgeModLoader] Recursing into package net.minecraft.world.gen.feature
2014-06-02 20:42:26 [FINEST] [ForgeModLoader] Recursing into package net.minecraft.world.gen.layer
2014-06-02 20:42:26 [FINEST] [ForgeModLoader] Recursing into package net.minecraft.world.gen.structure
2014-06-02 20:42:26 [FINEST] [ForgeModLoader] Recursing into package net.minecraft.world.storage
2014-06-02 20:42:26 [FINEST] [ForgeModLoader] Recursing into package net.minecraftforge
2014-06-02 20:42:26 [FINEST] [ForgeModLoader] Recursing into package net.minecraftforge.classloading
2014-06-02 20:42:26 [FINEST] [ForgeModLoader] Recursing into package net.minecraftforge.client
2014-06-02 20:42:26 [FINEST] [ForgeModLoader] Recursing into package net.minecraftforge.client.event
2014-06-02 20:42:26 [FINEST] [ForgeModLoader] Recursing into package net.minecraftforge.client.event.sound
2014-06-02 20:42:26 [FINEST] [ForgeModLoader] Recursing into package net.minecraftforge.client.model
2014-06-02 20:42:26 [FINEST] [ForgeModLoader] Recursing into package net.minecraftforge.client.model.obj
2014-06-02 20:42:26 [FINEST] [ForgeModLoader] Recursing into package net.minecraftforge.client.model.techne
2014-06-02 20:42:26 [FINEST] [ForgeModLoader] Recursing into package net.minecraftforge.common
2014-06-02 20:42:26 [FINEST] [ForgeModLoader] Recursing into package net.minecraftforge.common.network
2014-06-02 20:42:26 [FINEST] [ForgeModLoader] Recursing into package net.minecraftforge.common.network.packet
2014-06-02 20:42:26 [FINEST] [ForgeModLoader] Recursing into package net.minecraftforge.event
2014-06-02 20:42:26 [FINEST] [ForgeModLoader] Recursing into package net.minecraftforge.event.brewing
2014-06-02 20:42:26 [FINEST] [ForgeModLoader] Recursing into package net.minecraftforge.event.entity
2014-06-02 20:42:26 [FINEST] [ForgeModLoader] Recursing into package net.minecraftforge.event.entity.item
2014-06-02 20:42:26 [FINEST] [ForgeModLoader] Recursing into package net.minecraftforge.event.entity.living
2014-06-02 20:42:26 [FINEST] [ForgeModLoader] Recursing into package net.minecraftforge.event.entity.minecart
2014-06-02 20:42:26 [FINEST] [ForgeModLoader] Recursing into package net.minecraftforge.event.entity.player
2014-06-02 20:42:26 [FINEST] [ForgeModLoader] Recursing into package net.minecraftforge.event.terraingen
2014-06-02 20:42:26 [FINEST] [ForgeModLoader] Recursing into package net.minecraftforge.event.world
2014-06-02 20:42:26 [FINEST] [ForgeModLoader] Recursing into package net.minecraftforge.fluids
2014-06-02 20:42:26 [FINEST] [ForgeModLoader] Recursing into package net.minecraftforge.liquids
2014-06-02 20:42:26 [FINEST] [ForgeModLoader] Recursing into package net.minecraftforge.oredict
2014-06-02 20:42:26 [FINEST] [ForgeModLoader] Recursing into package net.minecraftforge.server
2014-06-02 20:42:26 [FINEST] [ForgeModLoader] Recursing into package net.minecraftforge.server.command
2014-06-02 20:42:26 [FINEST] [ForgeModLoader] Recursing into package net.minecraftforge.transformers
2014-06-02 20:42:26 [FINEST] [ForgeModLoader] Recursing into package paulscode
2014-06-02 20:42:26 [FINEST] [ForgeModLoader] Recursing into package paulscode.sound
2014-06-02 20:42:26 [FINEST] [ForgeModLoader] Recursing into package paulscode.sound.codecs
2014-06-02 20:42:26 [FINE] [ForgeModLoader] Examining file asm-debug-all-4.1.jar for potential mods
2014-06-02 20:42:26 [FINE] [ForgeModLoader] The mod container asm-debug-all-4.1.jar appears to be missing an mcmod.info file
2014-06-02 20:42:26 [FINE] [ForgeModLoader] Examining file launchwrapper-1.8.jar for potential mods
2014-06-02 20:42:26 [FINE] [ForgeModLoader] The mod container launchwrapper-1.8.jar appears to be missing an mcmod.info file
2014-06-02 20:42:26 [FINE] [ForgeModLoader] Examining file 1.6.4.jar for potential mods
2014-06-02 20:42:26 [FINE] [ForgeModLoader] The mod container 1.6.4.jar appears to be missing an mcmod.info file
2014-06-02 20:42:26 [FINE] [ForgeModLoader] Examining file lzma-0.0.1.jar for potential mods
2014-06-02 20:42:26 [FINE] [ForgeModLoader] The mod container lzma-0.0.1.jar appears to be missing an mcmod.info file
2014-06-02 20:42:26 [FINE] [ForgeModLoader] Examining file jopt-simple-4.5.jar for potential mods
2014-06-02 20:42:26 [FINE] [ForgeModLoader] The mod container jopt-simple-4.5.jar appears to be missing an mcmod.info file
2014-06-02 20:42:26 [FINE] [ForgeModLoader] Examining file codecjorbis-20101023.jar for potential mods
2014-06-02 20:42:26 [FINE] [ForgeModLoader] The mod container codecjorbis-20101023.jar appears to be missing an mcmod.info file
2014-06-02 20:42:26 [FINE] [ForgeModLoader] Examining file codecwav-20101023.jar for potential mods
2014-06-02 20:42:26 [FINE] [ForgeModLoader] The mod container codecwav-20101023.jar appears to be missing an mcmod.info file
2014-06-02 20:42:26 [FINE] [ForgeModLoader] Examining file libraryjavasound-20101123.jar for potential mods
2014-06-02 20:42:26 [FINE] [ForgeModLoader] The mod container libraryjavasound-20101123.jar appears to be missing an mcmod.info file
2014-06-02 20:42:26 [FINE] [ForgeModLoader] Examining file librarylwjglopenal-20100824.jar for potential mods
2014-06-02 20:42:26 [FINE] [ForgeModLoader] The mod container librarylwjglopenal-20100824.jar appears to be missing an mcmod.info file
2014-06-02 20:42:26 [FINE] [ForgeModLoader] Examining file soundsystem-20120107.jar for potential mods
2014-06-02 20:42:26 [FINE] [ForgeModLoader] The mod container soundsystem-20120107.jar appears to be missing an mcmod.info file
2014-06-02 20:42:26 [FINE] [ForgeModLoader] Examining file argo-2.25_fixed.jar for potential mods
2014-06-02 20:42:26 [FINE] [ForgeModLoader] The mod container argo-2.25_fixed.jar appears to be missing an mcmod.info file
2014-06-02 20:42:26 [FINE] [ForgeModLoader] Examining file bcprov-jdk15on-1.47.jar for potential mods
2014-06-02 20:42:26 [FINE] [ForgeModLoader] The mod container bcprov-jdk15on-1.47.jar appears to be missing an mcmod.info file
2014-06-02 20:42:27 [FINE] [ForgeModLoader] Examining file guava-14.0.jar for potential mods
2014-06-02 20:42:27 [FINE] [ForgeModLoader] The mod container guava-14.0.jar appears to be missing an mcmod.info file
2014-06-02 20:42:27 [FINE] [ForgeModLoader] Examining file commons-lang3-3.1.jar for potential mods
2014-06-02 20:42:27 [FINE] [ForgeModLoader] The mod container commons-lang3-3.1.jar appears to be missing an mcmod.info file
2014-06-02 20:42:27 [FINE] [ForgeModLoader] Examining file commons-io-2.4.jar for potential mods
2014-06-02 20:42:27 [FINE] [ForgeModLoader] The mod container commons-io-2.4.jar appears to be missing an mcmod.info file
2014-06-02 20:42:27 [FINE] [ForgeModLoader] Examining file jutils-1.0.0.jar for potential mods
2014-06-02 20:42:27 [FINE] [ForgeModLoader] The mod container jutils-1.0.0.jar appears to be missing an mcmod.info file
2014-06-02 20:42:27 [FINE] [ForgeModLoader] Examining file gson-2.2.2.jar for potential mods
2014-06-02 20:42:27 [FINE] [ForgeModLoader] The mod container gson-2.2.2.jar appears to be missing an mcmod.info file
2014-06-02 20:42:27 [FINE] [ForgeModLoader] Examining file jinput-2.0.5.jar for potential mods
2014-06-02 20:42:27 [FINE] [ForgeModLoader] The mod container jinput-2.0.5.jar appears to be missing an mcmod.info file
2014-06-02 20:42:27 [FINE] [ForgeModLoader] Examining file lwjgl-2.9.0.jar for potential mods
2014-06-02 20:42:27 [FINE] [ForgeModLoader] The mod container lwjgl-2.9.0.jar appears to be missing an mcmod.info file
2014-06-02 20:42:27 [FINE] [ForgeModLoader] Examining file lwjgl_util-2.9.0.jar for potential mods
2014-06-02 20:42:27 [FINE] [ForgeModLoader] The mod container lwjgl_util-2.9.0.jar appears to be missing an mcmod.info file
2014-06-02 20:42:27 [INFO] [ForgeModLoader] Forge Mod Loader has identified 4 mods to load
2014-06-02 20:42:27 [FINER] [ForgeModLoader] Received a system property request ''
2014-06-02 20:42:27 [FINER] [ForgeModLoader] System property request managing the state of 0 mods
2014-06-02 20:42:27 [FINE] [ForgeModLoader] After merging, found state information for 0 mods
2014-06-02 20:42:27 [FINE] [ForgeModLoader] Reloading logging properties from /Users/luke/Desktop/Youth Digital/Mod Design 1/My Mod 1/mcp/jars/config/logging.properties
2014-06-02 20:42:27 [FINE] [ForgeModLoader] Reloaded logging properties
2014-06-02 20:42:27 [FINE] [mcp] Mod Logging channel mcp configured at default level.
2014-06-02 20:42:27 [INFO] [mcp] Activating mod mcp
2014-06-02 20:42:27 [FINE] [FML] Mod Logging channel FML configured at default level.
2014-06-02 20:42:27 [INFO] [FML] Activating mod FML
2014-06-02 20:42:27 [FINE] [Forge] Mod Logging channel Forge configured at default level.
2014-06-02 20:42:27 [INFO] [Forge] Activating mod Forge
2014-06-02 20:42:27 [FINE] [mymod] Enabling mod mymod
2014-06-02 20:42:27 [FINE] [mymod] Mod Logging channel mymod configured at default level.
2014-06-02 20:42:27 [INFO] [mymod] Activating mod mymod
2014-06-02 20:42:27 [WARNING] [Forge Mod Loader] Mod Forge Mod Loader is missing a pack.mcmeta file, things may not work well
2014-06-02 20:42:27 [WARNING] [Minecraft Forge] Mod Minecraft Forge is missing a pack.mcmeta file, things may not work well
2014-06-02 20:42:27 [WARNING] [ALL-U-WANT mod] Mod ALL-U-WANT mod is missing a pack.mcmeta file, things may not work well
2014-06-02 20:42:27 [INFO] [Minecraft-Client] Reloading ResourceManager: Default, FMLFileResourcePack:Forge Mod Loader, FMLFileResourcePack:Minecraft Forge, FMLFileResourcePack:ALL-U-WANT mod
2014-06-02 20:42:27 [FINER] [ForgeModLoader] Verifying mod requirements are satisfied
2014-06-02 20:42:27 [FINER] [ForgeModLoader] All mod requirements are satisfied
2014-06-02 20:42:27 [FINER] [ForgeModLoader] Sorting mods into an ordered list
2014-06-02 20:42:27 [FINER] [ForgeModLoader] Mod sorting completed successfully
2014-06-02 20:42:27 [FINE] [ForgeModLoader] Mod sorting data
2014-06-02 20:42:27 [FINE] [ForgeModLoader] 	mymod(ALL-U-WANT mod:1.0): bin ()
2014-06-02 20:42:27 [FINEST] [mcp] Sending event FMLConstructionEvent to mod mcp
2014-06-02 20:42:27 [FINEST] [mcp] Sent event FMLConstructionEvent to mod mcp
2014-06-02 20:42:27 [FINEST] [FML] Sending event FMLConstructionEvent to mod FML
2014-06-02 20:42:27 [FINEST] [FML] Sent event FMLConstructionEvent to mod FML
2014-06-02 20:42:27 [FINEST] [Forge] Sending event FMLConstructionEvent to mod Forge
2014-06-02 20:42:27 [INFO] [ForgeModLoader] Registering Forge Packet Handler
2014-06-02 20:42:27 [FINEST] [ForgeModLoader] Testing mod Forge to verify it accepts its own version in a remote connection
2014-06-02 20:42:27 [FINEST] [ForgeModLoader] The mod Forge accepts its own version (9.11.1.953)
2014-06-02 20:42:27 [INFO] [ForgeModLoader] Succeeded registering Forge Packet Handler
2014-06-02 20:42:27 [FINEST] [Forge] Sent event FMLConstructionEvent to mod Forge
2014-06-02 20:42:27 [FINEST] [mymod] Sending event FMLConstructionEvent to mod mymod
2014-06-02 20:42:27 [FINEST] [ForgeModLoader] Testing mod mymod to verify it accepts its own version in a remote connection
2014-06-02 20:42:27 [FINEST] [ForgeModLoader] The mod mymod accepts its own version (1.0)
2014-06-02 20:42:27 [FINE] [ForgeModLoader] Attempting to inject @SidedProxy classes into mymod
2014-06-02 20:42:27 [FINEST] [mymod] Sent event FMLConstructionEvent to mod mymod
2014-06-02 20:42:27 [FINE] [ForgeModLoader] Mod signature data
2014-06-02 20:42:27 [FINE] [ForgeModLoader] 	mcp(Minecraft Coder Pack:8.09): minecraft.jar (NO VALID CERTIFICATE FOUND)
2014-06-02 20:42:27 [FINE] [ForgeModLoader] 	FML(Forge Mod Loader:6.4.45.953): bin (NO VALID CERTIFICATE FOUND)
2014-06-02 20:42:27 [FINE] [ForgeModLoader] 	Forge(Minecraft Forge:9.11.1.953): bin (NO VALID CERTIFICATE FOUND)
2014-06-02 20:42:27 [FINE] [ForgeModLoader] 	mymod(ALL-U-WANT mod:1.0): bin (NO VALID CERTIFICATE FOUND)
2014-06-02 20:42:27 [FINEST] [mcp] Sending event FMLPreInitializationEvent to mod mcp
2014-06-02 20:42:27 [FINEST] [mcp] Sent event FMLPreInitializationEvent to mod mcp
2014-06-02 20:42:27 [FINEST] [FML] Sending event FMLPreInitializationEvent to mod FML
2014-06-02 20:42:27 [FINEST] [FML] Sent event FMLPreInitializationEvent to mod FML
2014-06-02 20:42:27 [FINEST] [Forge] Sending event FMLPreInitializationEvent to mod Forge
2014-06-02 20:42:27 [INFO] [ForgeModLoader] Configured a dormant chunk cache size of 0
2014-06-02 20:42:27 [FINEST] [Forge] Sent event FMLPreInitializationEvent to mod Forge
2014-06-02 20:42:27 [FINEST] [mymod] Sending event FMLPreInitializationEvent to mod mymod
2014-06-02 20:43:05 [FINE] [fml.ItemTracker] Adding item mymod.items.MySword(8256) owned by mymod
2014-06-02 20:43:09 [FINE] [fml.ItemTracker] Adding item mymod.items.MyPickaxe(8257) owned by mymod
2014-06-02 20:43:11 [FINE] [fml.ItemTracker] Adding item mymod.items.MyPickaxe(8258) owned by mymod
2014-06-02 20:43:13 [FINE] [fml.ItemTracker] Adding item mymod.items.MyItem(8259) owned by mymod
2014-06-02 20:43:18 [FINE] [fml.ItemTracker] Adding item mymod.items.MyItem(8260) owned by mymod
2014-06-02 20:43:20 [FINE] [fml.ItemTracker] Adding item mymod.items.MyItem(8261) owned by mymod
2014-06-02 20:43:22 [FINE] [fml.ItemTracker] Adding item mymod.items.MyFood(8262) owned by mymod
2014-06-02 20:43:25 [FINE] [fml.ItemTracker] Adding item mymod.items.MyFood(8263) owned by mymod
2014-06-02 20:43:27 [FINE] [fml.ItemTracker] Adding item mymod.items.MyFood(8264) owned by mymod
2014-06-02 20:43:48 [FINE] [fml.ItemTracker] Adding item mymod.items.MyFood(8265) owned by mymod
2014-06-02 20:43:51 [FINE] [fml.ItemTracker] Adding item mymod.items.MyFood(8266) owned by mymod
2014-06-02 20:46:15 [FINEST] [mymod] Sent event FMLPreInitializationEvent to mod mymod
2014-06-02 20:46:16 [FINEST] [mcp] Sending event FMLInitializationEvent to mod mcp
2014-06-02 20:46:16 [FINEST] [mcp] Sent event FMLInitializationEvent to mod mcp
2014-06-02 20:46:16 [FINEST] [FML] Sending event FMLInitializationEvent to mod FML
2014-06-02 20:46:16 [FINEST] [FML] Sent event FMLInitializationEvent to mod FML
2014-06-02 20:46:16 [FINEST] [Forge] Sending event FMLInitializationEvent to mod Forge
2014-06-02 20:46:16 [FINEST] [Forge] Sent event FMLInitializationEvent to mod Forge
2014-06-02 20:46:16 [FINEST] [mymod] Sending event FMLInitializationEvent to mod mymod
2014-06-02 20:46:16 [FINEST] [mymod] Sent event FMLInitializationEvent to mod mymod
2014-06-02 20:46:16 [SEVERE] [ForgeModLoader] Fatal errors were detected during the transition from INITIALIZATION to POSTINITIALIZATION. Loading cannot continue
2014-06-02 20:46:16 [SEVERE] [ForgeModLoader] 
	mcp{8.09} [Minecraft Coder Pack] (minecraft.jar) Unloaded->Constructed->Pre-initialized->Initialized
	FML{6.4.45.953} [Forge Mod Loader] (bin) Unloaded->Constructed->Pre-initialized->Initialized
	Forge{9.11.1.953} [Minecraft Forge] (bin) Unloaded->Constructed->Pre-initialized->Initialized
	mymod{1.0} [ALL-U-WANT mod] (bin) Unloaded->Constructed->Pre-initialized->Errored
2014-06-02 20:46:16 [SEVERE] [ForgeModLoader] The following problems were captured during this phase
2014-06-02 20:46:16 [SEVERE] [ForgeModLoader] Caught exception from mymod
java.lang.NullPointerException
	at net.minecraft.item.ItemStack.<init>(ItemStack.java:67)
	at mymod.Main.init(Main.java:337)
	at sun.reflect.NativeMethodAccessorImpl.invoke0(Native Method)
	at sun.reflect.NativeMethodAccessorImpl.invoke(NativeMethodAccessorImpl.java:39)
	at sun.reflect.DelegatingMethodAccessorImpl.invoke(DelegatingMethodAccessorImpl.java:25)
	at java.lang.reflect.Method.invoke(Method.java:597)
	at cpw.mods.fml.common.FMLModContainer.handleModStateEvent(FMLModContainer.java:545)
	at sun.reflect.NativeMethodAccessorImpl.invoke0(Native Method)
	at sun.reflect.NativeMethodAccessorImpl.invoke(NativeMethodAccessorImpl.java:39)
	at sun.reflect.DelegatingMethodAccessorImpl.invoke(DelegatingMethodAccessorImpl.java:25)
	at java.lang.reflect.Method.invoke(Method.java:597)
	at com.google.common.eventbus.EventHandler.handleEvent(EventHandler.java:74)
	at com.google.common.eventbus.SynchronizedEventHandler.handleEvent(SynchronizedEventHandler.java:45)
	at com.google.common.eventbus.EventBus.dispatch(EventBus.java:313)
	at com.google.common.eventbus.EventBus.dispatchQueuedEvents(EventBus.java:296)
	at com.google.common.eventbus.EventBus.post(EventBus.java:267)
	at cpw.mods.fml.common.LoadController.sendEventToModContainer(LoadController.java:201)
	at cpw.mods.fml.common.LoadController.propogateStateMessage(LoadController.java:181)
	at sun.reflect.NativeMethodAccessorImpl.invoke0(Native Method)
	at sun.reflect.NativeMethodAccessorImpl.invoke(NativeMethodAccessorImpl.java:39)
	at sun.reflect.DelegatingMethodAccessorImpl.invoke(DelegatingMethodAccessorImpl.java:25)
	at java.lang.reflect.Method.invoke(Method.java:597)
	at com.google.common.eventbus.EventHandler.handleEvent(EventHandler.java:74)
	at com.google.common.eventbus.SynchronizedEventHandler.handleEvent(SynchronizedEventHandler.java:45)
	at com.google.common.eventbus.EventBus.dispatch(EventBus.java:313)
	at com.google.common.eventbus.EventBus.dispatchQueuedEvents(EventBus.java:296)
	at com.google.common.eventbus.EventBus.post(EventBus.java:267)
	at cpw.mods.fml.common.LoadController.distributeStateMessage(LoadController.java:112)
	at cpw.mods.fml.common.Loader.initializeMods(Loader.java:699)
	at cpw.mods.fml.client.FMLClientHandler.finishMinecraftLoading(FMLClientHandler.java:249)
	at net.minecraft.client.Minecraft.startGame(Minecraft.java:509)
	at net.minecraft.client.Minecraft.run(Minecraft.java:808)
	at net.minecraft.client.main.Main.main(Main.java:93)
	at sun.reflect.NativeMethodAccessorImpl.invoke0(Native Method)
	at sun.reflect.NativeMethodAccessorImpl.invoke(NativeMethodAccessorImpl.java:39)
	at sun.reflect.DelegatingMethodAccessorImpl.invoke(DelegatingMethodAccessorImpl.java:25)
	at java.lang.reflect.Method.invoke(Method.java:597)
	at net.minecraft.launchwrapper.Launch.launch(Launch.java:131)
	at net.minecraft.launchwrapper.Launch.main(Launch.java:27)
2014-06-02 20:46:16 [INFO] [STDOUT] ---- Minecraft Crash Report ----
2014-06-02 20:46:16 [INFO] [STDOUT] // Don't be sad, have a hug! <3
2014-06-02 20:46:16 [INFO] [STDOUT] 
2014-06-02 20:46:16 [INFO] [STDOUT] Time: 6/2/14 8:46 PM
2014-06-02 20:46:16 [INFO] [STDOUT] Description: Initializing game
2014-06-02 20:46:16 [INFO] [STDOUT] 
2014-06-02 20:46:16 [INFO] [STDOUT] java.lang.NullPointerException
2014-06-02 20:46:16 [INFO] [STDOUT] 	at net.minecraft.item.ItemStack.<init>(ItemStack.java:67)
2014-06-02 20:46:16 [INFO] [STDOUT] 	at mymod.Main.init(Main.java:337)
2014-06-02 20:46:16 [INFO] [STDOUT] 	at sun.reflect.NativeMethodAccessorImpl.invoke0(Native Method)
2014-06-02 20:46:16 [INFO] [STDOUT] 	at sun.reflect.NativeMethodAccessorImpl.invoke(NativeMethodAccessorImpl.java:39)
2014-06-02 20:46:16 [INFO] [STDOUT] 	at sun.reflect.DelegatingMethodAccessorImpl.invoke(DelegatingMethodAccessorImpl.java:25)
2014-06-02 20:46:16 [INFO] [STDOUT] 	at java.lang.reflect.Method.invoke(Method.java:597)
2014-06-02 20:46:16 [INFO] [STDOUT] 	at cpw.mods.fml.common.FMLModContainer.handleModStateEvent(FMLModContainer.java:545)
2014-06-02 20:46:16 [INFO] [STDOUT] 	at sun.reflect.NativeMethodAccessorImpl.invoke0(Native Method)
2014-06-02 20:46:16 [INFO] [STDOUT] 	at sun.reflect.NativeMethodAccessorImpl.invoke(NativeMethodAccessorImpl.java:39)
2014-06-02 20:46:16 [INFO] [STDOUT] 	at sun.reflect.DelegatingMethodAccessorImpl.invoke(DelegatingMethodAccessorImpl.java:25)
2014-06-02 20:46:16 [INFO] [STDOUT] 	at java.lang.reflect.Method.invoke(Method.java:597)
2014-06-02 20:46:16 [INFO] [STDOUT] 	at com.google.common.eventbus.EventHandler.handleEvent(EventHandler.java:74)
2014-06-02 20:46:16 [INFO] [STDOUT] 	at com.google.common.eventbus.SynchronizedEventHandler.handleEvent(SynchronizedEventHandler.java:45)
2014-06-02 20:46:16 [INFO] [STDOUT] 	at com.google.common.eventbus.EventBus.dispatch(EventBus.java:313)
2014-06-02 20:46:16 [INFO] [STDOUT] 	at com.google.common.eventbus.EventBus.dispatchQueuedEvents(EventBus.java:296)
2014-06-02 20:46:16 [INFO] [STDOUT] 	at com.google.common.eventbus.EventBus.post(EventBus.java:267)
2014-06-02 20:46:16 [INFO] [STDOUT] 	at cpw.mods.fml.common.LoadController.sendEventToModContainer(LoadController.java:201)
2014-06-02 20:46:16 [INFO] [STDOUT] 	at cpw.mods.fml.common.LoadController.propogateStateMessage(LoadController.java:181)
2014-06-02 20:46:16 [INFO] [STDOUT] 	at sun.reflect.NativeMethodAccessorImpl.invoke0(Native Method)
2014-06-02 20:46:16 [INFO] [STDOUT] 	at sun.reflect.NativeMethodAccessorImpl.invoke(NativeMethodAccessorImpl.java:39)
2014-06-02 20:46:16 [INFO] [STDOUT] 	at sun.reflect.DelegatingMethodAccessorImpl.invoke(DelegatingMethodAccessorImpl.java:25)
2014-06-02 20:46:16 [INFO] [STDOUT] 	at java.lang.reflect.Method.invoke(Method.java:597)
2014-06-02 20:46:16 [INFO] [STDOUT] 	at com.google.common.eventbus.EventHandler.handleEvent(EventHandler.java:74)
2014-06-02 20:46:16 [INFO] [STDOUT] 	at com.google.common.eventbus.SynchronizedEventHandler.handleEvent(SynchronizedEventHandler.java:45)
2014-06-02 20:46:16 [INFO] [STDOUT] 	at com.google.common.eventbus.EventBus.dispatch(EventBus.java:313)
2014-06-02 20:46:16 [INFO] [STDOUT] 	at com.google.common.eventbus.EventBus.dispatchQueuedEvents(EventBus.java:296)
2014-06-02 20:46:16 [INFO] [STDOUT] 	at com.google.common.eventbus.EventBus.post(EventBus.java:267)
2014-06-02 20:46:16 [INFO] [STDOUT] 	at cpw.mods.fml.common.LoadController.distributeStateMessage(LoadController.java:112)
2014-06-02 20:46:16 [INFO] [STDOUT] 	at cpw.mods.fml.common.Loader.initializeMods(Loader.java:699)
2014-06-02 20:46:16 [INFO] [STDOUT] 	at cpw.mods.fml.client.FMLClientHandler.finishMinecraftLoading(FMLClientHandler.java:249)
2014-06-02 20:46:16 [INFO] [STDOUT] 	at net.minecraft.client.Minecraft.startGame(Minecraft.java:509)
2014-06-02 20:46:16 [INFO] [STDOUT] 	at net.minecraft.client.Minecraft.run(Minecraft.java:808)
2014-06-02 20:46:16 [INFO] [STDOUT] 	at net.minecraft.client.main.Main.main(Main.java:93)
2014-06-02 20:46:16 [INFO] [STDOUT] 	at sun.reflect.NativeMethodAccessorImpl.invoke0(Native Method)
2014-06-02 20:46:16 [INFO] [STDOUT] 	at sun.reflect.NativeMethodAccessorImpl.invoke(NativeMethodAccessorImpl.java:39)
2014-06-02 20:46:16 [INFO] [STDOUT] 	at sun.reflect.DelegatingMethodAccessorImpl.invoke(DelegatingMethodAccessorImpl.java:25)
2014-06-02 20:46:16 [INFO] [STDOUT] 	at java.lang.reflect.Method.invoke(Method.java:597)
2014-06-02 20:46:16 [INFO] [STDOUT] 	at net.minecraft.launchwrapper.Launch.launch(Launch.java:131)
2014-06-02 20:46:16 [INFO] [STDOUT] 	at net.minecraft.launchwrapper.Launch.main(Launch.java:27)
2014-06-02 20:46:16 [INFO] [STDOUT] 
2014-06-02 20:46:16 [INFO] [STDOUT] 
2014-06-02 20:46:16 [INFO] [STDOUT] A detailed walkthrough of the error, its code path and all known details is as follows:
2014-06-02 20:46:16 [INFO] [STDOUT] ---------------------------------------------------------------------------------------
2014-06-02 20:46:16 [INFO] [STDOUT] 
2014-06-02 20:46:16 [INFO] [STDOUT] -- Head --
2014-06-02 20:46:16 [INFO] [STDOUT] Stacktrace:
2014-06-02 20:46:16 [INFO] [STDOUT] 	at net.minecraft.item.ItemStack.<init>(ItemStack.java:67)
2014-06-02 20:46:16 [INFO] [STDOUT] 	at mymod.Main.init(Main.java:337)
2014-06-02 20:46:16 [INFO] [STDOUT] 	at sun.reflect.NativeMethodAccessorImpl.invoke0(Native Method)
2014-06-02 20:46:16 [INFO] [STDOUT] 	at sun.reflect.NativeMethodAccessorImpl.invoke(NativeMethodAccessorImpl.java:39)
2014-06-02 20:46:16 [INFO] [STDOUT] 	at sun.reflect.DelegatingMethodAccessorImpl.invoke(DelegatingMethodAccessorImpl.java:25)
2014-06-02 20:46:16 [INFO] [STDOUT] 	at java.lang.reflect.Method.invoke(Method.java:597)
2014-06-02 20:46:16 [INFO] [STDOUT] 	at cpw.mods.fml.common.FMLModContainer.handleModStateEvent(FMLModContainer.java:545)
2014-06-02 20:46:16 [INFO] [STDOUT] 	at sun.reflect.NativeMethodAccessorImpl.invoke0(Native Method)
2014-06-02 20:46:16 [INFO] [STDOUT] 	at sun.reflect.NativeMethodAccessorImpl.invoke(NativeMethodAccessorImpl.java:39)
2014-06-02 20:46:16 [INFO] [STDOUT] 	at sun.reflect.DelegatingMethodAccessorImpl.invoke(DelegatingMethodAccessorImpl.java:25)
2014-06-02 20:46:16 [INFO] [STDOUT] 	at java.lang.reflect.Method.invoke(Method.java:597)
2014-06-02 20:46:16 [INFO] [STDOUT] 	at com.google.common.eventbus.EventHandler.handleEvent(EventHandler.java:74)
2014-06-02 20:46:16 [INFO] [STDOUT] 	at com.google.common.eventbus.SynchronizedEventHandler.handleEvent(SynchronizedEventHandler.java:45)
2014-06-02 20:46:16 [INFO] [STDOUT] 	at com.google.common.eventbus.EventBus.dispatch(EventBus.java:313)
2014-06-02 20:46:16 [INFO] [STDOUT] 	at com.google.common.eventbus.EventBus.dispatchQueuedEvents(EventBus.java:296)
2014-06-02 20:46:16 [INFO] [STDOUT] 	at com.google.common.eventbus.EventBus.post(EventBus.java:267)
2014-06-02 20:46:16 [INFO] [STDOUT] 	at cpw.mods.fml.common.LoadController.sendEventToModContainer(LoadController.java:201)
2014-06-02 20:46:16 [INFO] [STDOUT] 	at cpw.mods.fml.common.LoadController.propogateStateMessage(LoadController.java:181)
2014-06-02 20:46:16 [INFO] [STDOUT] 	at sun.reflect.NativeMethodAccessorImpl.invoke0(Native Method)
2014-06-02 20:46:16 [INFO] [STDOUT] 	at sun.reflect.NativeMethodAccessorImpl.invoke(NativeMethodAccessorImpl.java:39)
2014-06-02 20:46:16 [INFO] [STDOUT] 	at sun.reflect.DelegatingMethodAccessorImpl.invoke(DelegatingMethodAccessorImpl.java:25)
2014-06-02 20:46:16 [INFO] [STDOUT] 	at java.lang.reflect.Method.invoke(Method.java:597)
2014-06-02 20:46:16 [INFO] [STDOUT] 	at com.google.common.eventbus.EventHandler.handleEvent(EventHandler.java:74)
2014-06-02 20:46:16 [INFO] [STDOUT] 	at com.google.common.eventbus.SynchronizedEventHandler.handleEvent(SynchronizedEventHandler.java:45)
2014-06-02 20:46:16 [INFO] [STDOUT] 	at com.google.common.eventbus.EventBus.dispatch(EventBus.java:313)
2014-06-02 20:46:16 [INFO] [STDOUT] 	at com.google.common.eventbus.EventBus.dispatchQueuedEvents(EventBus.java:296)
2014-06-02 20:46:16 [INFO] [STDOUT] 	at com.google.common.eventbus.EventBus.post(EventBus.java:267)
2014-06-02 20:46:16 [INFO] [STDOUT] 	at cpw.mods.fml.common.LoadController.distributeStateMessage(LoadController.java:112)
2014-06-02 20:46:16 [INFO] [STDOUT] 	at cpw.mods.fml.common.Loader.initializeMods(Loader.java:699)
2014-06-02 20:46:16 [INFO] [STDOUT] 	at cpw.mods.fml.client.FMLClientHandler.finishMinecraftLoading(FMLClientHandler.java:249)
2014-06-02 20:46:16 [INFO] [STDOUT] 	at net.minecraft.client.Minecraft.startGame(Minecraft.java:509)
2014-06-02 20:46:16 [INFO] [STDOUT] 
2014-06-02 20:46:16 [INFO] [STDOUT] -- Initialization --
2014-06-02 20:46:16 [INFO] [STDOUT] Details:
2014-06-02 20:46:16 [INFO] [STDOUT] Stacktrace:
2014-06-02 20:46:16 [INFO] [STDOUT] 	at net.minecraft.client.Minecraft.run(Minecraft.java:808)
2014-06-02 20:46:16 [INFO] [STDOUT] 	at net.minecraft.client.main.Main.main(Main.java:93)
2014-06-02 20:46:16 [INFO] [STDOUT] 	at sun.reflect.NativeMethodAccessorImpl.invoke0(Native Method)
2014-06-02 20:46:16 [INFO] [STDOUT] 	at sun.reflect.NativeMethodAccessorImpl.invoke(NativeMethodAccessorImpl.java:39)
2014-06-02 20:46:16 [INFO] [STDOUT] 	at sun.reflect.DelegatingMethodAccessorImpl.invoke(DelegatingMethodAccessorImpl.java:25)
2014-06-02 20:46:16 [INFO] [STDOUT] 	at java.lang.reflect.Method.invoke(Method.java:597)
2014-06-02 20:46:16 [INFO] [STDOUT] 	at net.minecraft.launchwrapper.Launch.launch(Launch.java:131)
2014-06-02 20:46:16 [INFO] [STDOUT] 	at net.minecraft.launchwrapper.Launch.main(Launch.java:27)
2014-06-02 20:46:16 [INFO] [STDOUT] 
2014-06-02 20:46:16 [INFO] [STDOUT] -- System Details --
2014-06-02 20:46:16 [INFO] [STDOUT] Details:
2014-06-02 20:46:16 [INFO] [STDOUT] 	Minecraft Version: 1.6.4
2014-06-02 20:46:16 [INFO] [STDOUT] 	Operating System: Mac OS X (x86_64) version 10.9.2
2014-06-02 20:46:16 [INFO] [STDOUT] 	Java Version: 1.6.0_65, Apple Inc.
2014-06-02 20:46:16 [INFO] [STDOUT] 	Java VM Version: Java HotSpot(TM) 64-Bit Server VM (mixed mode), Apple Inc.
2014-06-02 20:46:16 [INFO] [STDOUT] 	Memory: 968727632 bytes (923 MB) / 1060372480 bytes (1011 MB) up to 1060372480 bytes (1011 MB)
2014-06-02 20:46:16 [INFO] [STDOUT] 	JVM Flags: 3 total; -Xincgc -Xmx1024M -Xms1024M
2014-06-02 20:46:16 [INFO] [STDOUT] 	AABB Pool Size: 0 (0 bytes; 0 MB) allocated, 0 (0 bytes; 0 MB) used
2014-06-02 20:46:16 [INFO] [STDOUT] 	Suspicious classes: FML and Forge are installed
2014-06-02 20:46:16 [INFO] [STDOUT] 	IntCache: cache: 0, tcache: 0, allocated: 0, tallocated: 0
2014-06-02 20:46:16 [INFO] [STDOUT] 	FML: MCP v8.11 FML v6.4.45.953 Minecraft Forge 9.11.1.953 4 mods loaded, 4 mods active
2014-06-02 20:46:16 [INFO] [STDOUT] 	mcp{8.09} [Minecraft Coder Pack] (minecraft.jar) Unloaded->Constructed->Pre-initialized->Initialized
2014-06-02 20:46:16 [INFO] [STDOUT] 	FML{6.4.45.953} [Forge Mod Loader] (bin) Unloaded->Constructed->Pre-initialized->Initialized
2014-06-02 20:46:16 [INFO] [STDOUT] 	Forge{9.11.1.953} [Minecraft Forge] (bin) Unloaded->Constructed->Pre-initialized->Initialized
2014-06-02 20:46:16 [INFO] [STDOUT] 	mymod{1.0} [ALL-U-WANT mod] (bin) Unloaded->Constructed->Pre-initialized->Errored
2014-06-02 20:46:16 [INFO] [STDOUT] 	Launched Version: 1.6
2014-06-02 20:46:16 [INFO] [STDOUT] 	LWJGL: 2.9.0
2014-06-02 20:46:16 [INFO] [STDOUT] 	OpenGL: Intel HD Graphics 4000 OpenGL Engine GL version 2.1 INTEL-8.24.12, Intel Inc.
2014-06-02 20:46:16 [INFO] [STDOUT] 	Is Modded: Definitely; Client brand changed to 'fml,forge'
2014-06-02 20:46:16 [INFO] [STDOUT] 	Type: Client (map_client.txt)
2014-06-02 20:46:16 [INFO] [STDOUT] 	Resource Pack: Default
2014-06-02 20:46:16 [INFO] [STDOUT] 	Current Language: English (US)
2014-06-02 20:46:16 [INFO] [STDOUT] 	Profiler Position: N/A (disabled)
2014-06-02 20:46:16 [INFO] [STDOUT] 	Vec3 Pool Size: ~~ERROR~~ NullPointerException: null
2014-06-02 20:46:16 [INFO] [STDOUT] #@!@# Game crashed! Crash report saved to: #@!@# /Users/luke/Desktop/Youth Digital/Mod Design 1/My Mod 1/mcp/jars/./crash-reports/crash-2014-06-02_20.46.16-client.txt
