2014-05-14 15:12:33 [CLIENT] [INFO] Setting user: ydStudent
2014-05-14 15:12:34 [CLIENT] [INFO] LWJGL Version: 2.9.0
2014-05-14 15:12:34 [CLIENT] [INFO] Reloading ResourceManager: Default
2014-05-14 15:12:37 [CLIENT] [INFO] Reloading ResourceManager: Default, FMLFileResourcePack:Forge Mod Loader, FMLFileResourcePack:Minecraft Forge, FMLFileResourcePack:Creepers Rock
2014-05-14 15:12:38 [CLIENT] [INFO] Reloading ResourceManager: Default, FMLFileResourcePack:Forge Mod Loader, FMLFileResourcePack:Minecraft Forge, FMLFileResourcePack:Creepers Rock
2014-05-14 15:12:40 [CLIENT] [SEVERE] Realms: Server not available!
2014-05-14 15:14:23 [CLIENT] [INFO] Stopping!
2014-05-14 15:34:08 [CLIENT] [INFO] Setting user: ydStudent
2014-05-14 15:34:09 [CLIENT] [INFO] LWJGL Version: 2.9.0
2014-05-14 15:34:10 [CLIENT] [INFO] Reloading ResourceManager: Default
2014-05-14 15:34:12 [CLIENT] [INFO] Reloading ResourceManager: Default, FMLFileResourcePack:Forge Mod Loader, FMLFileResourcePack:Minecraft Forge, FMLFileResourcePack:Creepers Rock
2014-05-14 15:34:13 [CLIENT] [INFO] Reloading ResourceManager: Default, FMLFileResourcePack:Forge Mod Loader, FMLFileResourcePack:Minecraft Forge, FMLFileResourcePack:Creepers Rock
2014-05-14 15:34:15 [CLIENT] [SEVERE] Realms: Server not available!
2014-05-14 15:36:55 [CLIENT] [INFO] Stopping!
2014-05-14 15:40:11 [CLIENT] [INFO] Setting user: ydStudent
2014-05-14 15:40:12 [CLIENT] [INFO] LWJGL Version: 2.9.0
2014-05-14 15:40:12 [CLIENT] [INFO] Reloading ResourceManager: Default
2014-05-14 15:40:15 [CLIENT] [INFO] Reloading ResourceManager: Default, FMLFileResourcePack:Forge Mod Loader, FMLFileResourcePack:Minecraft Forge, FMLFileResourcePack:LOLcraft
2014-05-14 15:40:16 [CLIENT] [INFO] Reloading ResourceManager: Default, FMLFileResourcePack:Forge Mod Loader, FMLFileResourcePack:Minecraft Forge, FMLFileResourcePack:LOLcraft
2014-05-14 15:40:17 [CLIENT] [SEVERE] Realms: Server not available!
2014-05-14 15:40:50 [CLIENT] [INFO] Stopping!
2014-05-14 16:26:18 [CLIENT] [INFO] Setting user: ydStudent
2014-05-14 16:26:18 [CLIENT] [INFO] LWJGL Version: 2.9.0
2014-05-14 16:26:19 [CLIENT] [INFO] Reloading ResourceManager: Default
2014-05-14 16:26:23 [CLIENT] [INFO] Reloading ResourceManager: Default, FMLFileResourcePack:Forge Mod Loader, FMLFileResourcePack:Minecraft Forge, FMLFileResourcePack:LOLcraft, FMLFileResourcePack:Troublesome Mod
2014-05-14 16:26:24 [CLIENT] [INFO] Reloading ResourceManager: Default, FMLFileResourcePack:Forge Mod Loader, FMLFileResourcePack:Minecraft Forge, FMLFileResourcePack:LOLcraft, FMLFileResourcePack:Troublesome Mod
2014-05-14 16:26:25 [CLIENT] [SEVERE] Realms: Server not available!
2014-05-14 16:31:12 [CLIENT] [INFO] Stopping!
2014-05-14 18:35:24 [CLIENT] [INFO] Setting user: ydStudent
2014-05-14 18:35:25 [CLIENT] [INFO] LWJGL Version: 2.9.0
2014-05-14 18:35:25 [CLIENT] [INFO] Reloading ResourceManager: Default
2014-05-14 18:35:28 [CLIENT] [INFO] Reloading ResourceManager: Default, FMLFileResourcePack:Forge Mod Loader, FMLFileResourcePack:Minecraft Forge, FMLFileResourcePack:LOLcraft
2014-05-14 18:35:29 [CLIENT] [INFO] Reloading ResourceManager: Default, FMLFileResourcePack:Forge Mod Loader, FMLFileResourcePack:Minecraft Forge, FMLFileResourcePack:LOLcraft
2014-05-14 18:35:32 [CLIENT] [SEVERE] Realms: Server not available!
2014-05-14 18:35:43 [CLIENT] [INFO] [CHAT] /gamemode, /gamerule
2014-05-14 18:35:45 [CLIENT] [INFO] [CHAT] Your game mode has been updated
2014-05-14 18:35:47 [CLIENT] [INFO] [CHAT] Your game mode has been updated
2014-05-14 18:36:17 [CLIENT] [INFO] Stopping!
2014-05-22 21:48:15 [CLIENT] [INFO] Setting user: ydStudent
2014-05-22 21:48:15 [CLIENT] [INFO] LWJGL Version: 2.9.0
2014-05-22 21:48:16 [CLIENT] [INFO] Reloading ResourceManager: Default
2014-05-22 21:48:19 [CLIENT] [INFO] Reloading ResourceManager: Default, FMLFileResourcePack:Forge Mod Loader, FMLFileResourcePack:Minecraft Forge, FMLFileResourcePack:StuffCraft
2014-05-22 21:48:20 [CLIENT] [INFO] Reloading ResourceManager: Default, FMLFileResourcePack:Forge Mod Loader, FMLFileResourcePack:Minecraft Forge, FMLFileResourcePack:StuffCraft
2014-05-22 21:48:23 [CLIENT] [SEVERE] Realms: Server not available!
2014-05-22 21:48:35 [CLIENT] [INFO] [CHAT] Local game hosted on port 52845
2014-05-22 21:48:40 [CLIENT] [INFO] [CHAT] /gamemode, /gamerule
2014-05-22 21:48:40 [CLIENT] [INFO] [CHAT] survival, creative, adventure
2014-05-22 21:48:41 [CLIENT] [INFO] [CHAT] survival, creative, adventure
2014-05-22 21:48:41 [CLIENT] [INFO] [CHAT] Your game mode has been updated
2014-05-22 21:51:06 [CLIENT] [INFO] Stopping!
2014-05-23 13:01:23 [CLIENT] [INFO] Setting user: ydStudent
2014-05-23 13:01:24 [CLIENT] [INFO] LWJGL Version: 2.9.0
2014-05-23 13:01:25 [CLIENT] [INFO] Reloading ResourceManager: Default
2014-05-23 13:01:30 [CLIENT] [INFO] Reloading ResourceManager: Default, FMLFileResourcePack:Forge Mod Loader, FMLFileResourcePack:Minecraft Forge, FMLFileResourcePack:StuffCraft
2014-05-23 13:01:31 [CLIENT] [INFO] Reloading ResourceManager: Default, FMLFileResourcePack:Forge Mod Loader, FMLFileResourcePack:Minecraft Forge, FMLFileResourcePack:StuffCraft
2014-05-23 13:01:32 [CLIENT] [SEVERE] Realms: Server not available!
2014-05-23 13:45:39 [CLIENT] [INFO] Setting user: ydStudent
2014-05-23 13:45:40 [CLIENT] [INFO] LWJGL Version: 2.9.0
2014-05-23 13:45:40 [CLIENT] [INFO] Reloading ResourceManager: Default
2014-05-23 13:45:43 [CLIENT] [INFO] Reloading ResourceManager: Default, FMLFileResourcePack:Forge Mod Loader, FMLFileResourcePack:Minecraft Forge, FMLFileResourcePack:StuffCraft
2014-05-23 13:45:44 [CLIENT] [INFO] Reloading ResourceManager: Default, FMLFileResourcePack:Forge Mod Loader, FMLFileResourcePack:Minecraft Forge, FMLFileResourcePack:StuffCraft
2014-05-23 13:45:46 [CLIENT] [SEVERE] Realms: Server not available!
2014-05-23 13:47:24 [CLIENT] [INFO] Stopping!
2014-05-23 13:48:16 [CLIENT] [INFO] Setting user: ydStudent
2014-05-23 13:48:17 [CLIENT] [INFO] LWJGL Version: 2.9.0
2014-05-23 13:48:17 [CLIENT] [INFO] Reloading ResourceManager: Default
2014-05-23 13:48:20 [CLIENT] [INFO] Reloading ResourceManager: Default, FMLFileResourcePack:Forge Mod Loader, FMLFileResourcePack:Minecraft Forge, FMLFileResourcePack:StuffCraft
2014-05-23 13:48:21 [CLIENT] [INFO] Reloading ResourceManager: Default, FMLFileResourcePack:Forge Mod Loader, FMLFileResourcePack:Minecraft Forge, FMLFileResourcePack:StuffCraft
2014-05-23 13:48:23 [CLIENT] [SEVERE] Realms: Server not available!
2014-05-23 13:51:46 [CLIENT] [INFO] Stopping!
2014-05-23 14:20:29 [CLIENT] [INFO] Setting user: ydStudent
2014-05-23 14:20:30 [CLIENT] [INFO] LWJGL Version: 2.9.0
2014-05-23 14:20:30 [CLIENT] [INFO] Reloading ResourceManager: Default
2014-05-23 14:20:34 [CLIENT] [INFO] Reloading ResourceManager: Default, FMLFileResourcePack:Forge Mod Loader, FMLFileResourcePack:Minecraft Forge, FMLFileResourcePack:StuffCraft
2014-05-23 14:20:35 [CLIENT] [INFO] Reloading ResourceManager: Default, FMLFileResourcePack:Forge Mod Loader, FMLFileResourcePack:Minecraft Forge, FMLFileResourcePack:StuffCraft
2014-05-23 14:20:43 [CLIENT] [SEVERE] Realms: Server not available!
2014-05-23 14:22:46 [CLIENT] [INFO] Stopping!
2014-05-23 15:02:12 [CLIENT] [INFO] Setting user: ydStudent
2014-05-23 15:02:12 [CLIENT] [INFO] LWJGL Version: 2.9.0
2014-05-23 15:02:13 [CLIENT] [INFO] Reloading ResourceManager: Default
2014-05-23 15:02:15 [CLIENT] [INFO] Reloading ResourceManager: Default, FMLFileResourcePack:Forge Mod Loader, FMLFileResourcePack:Minecraft Forge, FMLFileResourcePack:StuffCraft, FMLFileResourcePack:Troublesome Mod
2014-05-23 15:02:16 [CLIENT] [INFO] Reloading ResourceManager: Default, FMLFileResourcePack:Forge Mod Loader, FMLFileResourcePack:Minecraft Forge, FMLFileResourcePack:StuffCraft, FMLFileResourcePack:Troublesome Mod
2014-05-23 15:02:18 [CLIENT] [SEVERE] Realms: Server not available!
2014-05-23 15:03:14 [CLIENT] [INFO] [CHAT] The Secret Code is: DOUBLE
2014-05-23 15:05:23 [CLIENT] [INFO] Stopping!
2014-05-23 15:05:45 [CLIENT] [INFO] Setting user: ydStudent
2014-05-23 15:05:45 [CLIENT] [INFO] LWJGL Version: 2.9.0
2014-05-23 15:05:46 [CLIENT] [INFO] Reloading ResourceManager: Default
2014-05-23 15:05:49 [CLIENT] [INFO] Reloading ResourceManager: Default, FMLFileResourcePack:Forge Mod Loader, FMLFileResourcePack:Minecraft Forge, FMLFileResourcePack:StuffCraft, FMLFileResourcePack:Troublesome Mod
2014-05-23 15:05:51 [CLIENT] [INFO] Reloading ResourceManager: Default, FMLFileResourcePack:Forge Mod Loader, FMLFileResourcePack:Minecraft Forge, FMLFileResourcePack:StuffCraft, FMLFileResourcePack:Troublesome Mod
2014-05-23 15:05:52 [CLIENT] [SEVERE] Realms: Server not available!
2014-05-23 15:13:17 [CLIENT] [INFO] Stopping!
2014-06-02 20:39:23 [CLIENT] [INFO] Setting user: ydStudent
2014-06-02 20:39:23 [CLIENT] [INFO] LWJGL Version: 2.9.0
2014-06-02 20:39:24 [CLIENT] [INFO] Reloading ResourceManager: Default
2014-06-02 20:39:26 [CLIENT] [INFO] Reloading ResourceManager: Default, FMLFileResourcePack:Forge Mod Loader, FMLFileResourcePack:Minecraft Forge, FMLFileResourcePack:ALL-U-WANT mod
2014-06-02 20:45:20 [CLIENT] [INFO] Setting user: ydStudent
2014-06-02 20:45:21 [CLIENT] [INFO] LWJGL Version: 2.9.0
2014-06-02 20:45:21 [CLIENT] [INFO] Reloading ResourceManager: Default
2014-06-02 20:45:24 [CLIENT] [INFO] Reloading ResourceManager: Default, FMLFileResourcePack:Forge Mod Loader, FMLFileResourcePack:Minecraft Forge, FMLFileResourcePack:ALL-U-WANT mod
2014-06-02 20:55:21 [CLIENT] [INFO] Setting user: ydStudent
2014-06-02 20:55:22 [CLIENT] [INFO] LWJGL Version: 2.9.0
2014-06-02 20:55:22 [CLIENT] [INFO] Reloading ResourceManager: Default
2014-06-02 20:57:17 [CLIENT] [INFO] Setting user: ydStudent
2014-06-02 20:57:17 [CLIENT] [INFO] LWJGL Version: 2.9.0
2014-06-02 20:57:18 [CLIENT] [INFO] Reloading ResourceManager: Default
2014-06-02 20:57:20 [CLIENT] [INFO] Reloading ResourceManager: Default, FMLFileResourcePack:Forge Mod Loader, FMLFileResourcePack:Minecraft Forge, FMLFileResourcePack:ALL-U-WANT mod
