2014-05-23 13:28:33 [SERVER] [INFO] Starting integrated minecraft server version 1.6.4
2014-05-23 13:28:33 [SERVER] [INFO] Generating keypair
2014-05-23 13:28:33 [SERVER] [INFO] Converting map!
2014-05-23 13:28:33 [SERVER] [INFO] Scanning folders...
2014-05-23 13:28:33 [SERVER] [INFO] Total conversion count is 0
2014-05-23 13:28:33 [SERVER] [INFO] Preparing start region for level 0
2014-05-23 13:28:34 [SERVER] [INFO] Preparing spawn area: 28%
2014-05-23 13:28:35 [SERVER] [INFO] Preparing spawn area: 55%
2014-05-23 13:28:36 [SERVER] [INFO] Preparing spawn area: 80%
2014-05-23 13:28:38 [SERVER] [INFO] ydStudent[/127.0.0.1:0] logged in with entity id 30022 at (215.5, 64.0, 211.5)
2014-05-23 13:28:38 [SERVER] [INFO] ydStudent joined the game
2014-05-23 13:29:20 [SERVER] [INFO] Saving and pausing game...
2014-05-23 13:29:20 [SERVER] [INFO] Saving chunks for level 'New World'/Overworld
2014-05-23 13:29:20 [SERVER] [INFO] Saving chunks for level 'New World'/Nether
2014-05-23 13:29:20 [SERVER] [INFO] Saving chunks for level 'New World'/The End
2014-05-23 13:29:21 [SERVER] [INFO] Stopping server
2014-05-23 13:29:21 [SERVER] [INFO] Saving players
2014-05-23 13:29:21 [SERVER] [INFO] ydStudent left the game
2014-05-23 13:29:21 [SERVER] [INFO] Saving worlds
2014-05-23 13:29:21 [SERVER] [INFO] Saving chunks for level 'New World'/Overworld
2014-05-23 13:29:21 [SERVER] [INFO] Saving chunks for level 'New World'/Nether
2014-05-23 13:29:21 [SERVER] [INFO] Saving chunks for level 'New World'/The End
