2014-05-23 13:25:01 [SERVER] [INFO] Starting integrated minecraft server version 1.6.4
2014-05-23 13:25:01 [SERVER] [INFO] Generating keypair
2014-05-23 13:25:01 [SERVER] [INFO] Converting map!
2014-05-23 13:25:01 [SERVER] [INFO] Scanning folders...
2014-05-23 13:25:01 [SERVER] [INFO] Total conversion count is 0
2014-05-23 13:25:01 [SERVER] [INFO] Preparing start region for level 0
2014-05-23 13:25:02 [SERVER] [INFO] Preparing spawn area: 24%
2014-05-23 13:25:03 [SERVER] [INFO] Preparing spawn area: 48%
2014-05-23 13:25:04 [SERVER] [INFO] Preparing spawn area: 65%
2014-05-23 13:25:05 [SERVER] [INFO] Preparing spawn area: 84%
2014-05-23 13:25:06 [SERVER] [INFO] ydStudent[/127.0.0.1:0] logged in with entity id 16799 at (-217.5, 64.0, 254.5)
2014-05-23 13:25:06 [SERVER] [INFO] ydStudent joined the game
2014-05-23 13:25:28 [SERVER] [INFO] Saving and pausing game...
2014-05-23 13:25:28 [SERVER] [INFO] Saving chunks for level 'New World'/Overworld
2014-05-23 13:25:28 [SERVER] [INFO] Saving chunks for level 'New World'/Nether
2014-05-23 13:25:28 [SERVER] [INFO] Saving chunks for level 'New World'/The End
2014-05-23 13:25:29 [SERVER] [INFO] Stopping server
2014-05-23 13:25:29 [SERVER] [INFO] Saving players
2014-05-23 13:25:29 [SERVER] [INFO] ydStudent left the game
2014-05-23 13:25:29 [SERVER] [INFO] Saving worlds
2014-05-23 13:25:29 [SERVER] [INFO] Saving chunks for level 'New World'/Overworld
2014-05-23 13:25:29 [SERVER] [INFO] Saving chunks for level 'New World'/Nether
2014-05-23 13:25:29 [SERVER] [INFO] Saving chunks for level 'New World'/The End
