2014-05-14 15:34:16 [SERVER] [INFO] Starting integrated minecraft server version 1.6.4
2014-05-14 15:34:16 [SERVER] [INFO] Generating keypair
2014-05-14 15:34:16 [SERVER] [INFO] Preparing start region for level 0
2014-05-14 15:34:17 [SERVER] [INFO] ydStudent[/127.0.0.1:0] logged in with entity id 44 at (-309.4988288458003, 4.0, 849.9073474386952)
2014-05-14 15:34:17 [SERVER] [INFO] ydStudent joined the game
2014-05-14 15:36:49 [SERVER] [INFO] Saving and pausing game...
2014-05-14 15:36:49 [SERVER] [INFO] Saving chunks for level 'LOLOLOLOLOLOLOLOLOLOLOLOLOLOLOL'/Overworld
2014-05-14 15:36:49 [SERVER] [INFO] Saving chunks for level 'LOLOLOLOLOLOLOLOLOLOLOLOLOLOLOL'/Nether
2014-05-14 15:36:49 [SERVER] [INFO] Saving chunks for level 'LOLOLOLOLOLOLOLOLOLOLOLOLOLOLOL'/The End
2014-05-14 15:36:53 [SERVER] [INFO] Saving and pausing game...
2014-05-14 15:36:53 [SERVER] [INFO] Saving chunks for level 'LOLOLOLOLOLOLOLOLOLOLOLOLOLOLOL'/Overworld
2014-05-14 15:36:53 [SERVER] [INFO] Saving chunks for level 'LOLOLOLOLOLOLOLOLOLOLOLOLOLOLOL'/Nether
2014-05-14 15:36:53 [SERVER] [INFO] Saving chunks for level 'LOLOLOLOLOLOLOLOLOLOLOLOLOLOLOL'/The End
2014-05-14 15:36:54 [SERVER] [INFO] Stopping server
2014-05-14 15:36:54 [SERVER] [INFO] Saving players
2014-05-14 15:36:54 [SERVER] [INFO] ydStudent left the game
2014-05-14 15:36:54 [SERVER] [INFO] Saving worlds
2014-05-14 15:36:54 [SERVER] [INFO] Saving chunks for level 'LOLOLOLOLOLOLOLOLOLOLOLOLOLOLOL'/Overworld
2014-05-14 15:36:54 [SERVER] [INFO] Saving chunks for level 'LOLOLOLOLOLOLOLOLOLOLOLOLOLOLOL'/Nether
2014-05-14 15:36:54 [SERVER] [INFO] Saving chunks for level 'LOLOLOLOLOLOLOLOLOLOLOLOLOLOLOL'/The End
2014-05-22 21:48:25 [SERVER] [INFO] Starting integrated minecraft server version 1.6.4
2014-05-22 21:48:25 [SERVER] [INFO] Generating keypair
2014-05-22 21:48:28 [SERVER] [INFO] Preparing start region for level 0
2014-05-22 21:48:29 [SERVER] [INFO] ydStudent[/127.0.0.1:0] logged in with entity id 26 at (123.7715136325559, 7.0, -684.3000000119209)
2014-05-22 21:48:29 [SERVER] [INFO] ydStudent joined the game
2014-05-22 21:48:33 [SERVER] [INFO] Saving and pausing game...
2014-05-22 21:48:33 [SERVER] [INFO] Saving chunks for level 'Troubleshoot 9'/Overworld
2014-05-22 21:48:33 [SERVER] [INFO] Saving chunks for level 'Troubleshoot 9'/Nether
2014-05-22 21:48:33 [SERVER] [INFO] Saving chunks for level 'Troubleshoot 9'/The End
2014-05-22 21:48:35 [SERVER] [INFO] Started on 52845
2014-05-22 21:48:41 [SERVER] [INFO] [ydStudent: Set own game mode to Creative Mode]
2014-05-22 21:51:06 [SERVER] [INFO] Stopping server
2014-05-22 21:51:06 [SERVER] [INFO] Stopping server connection
2014-05-22 21:51:06 [SERVER] [INFO] Saving players
2014-05-22 21:51:06 [SERVER] [INFO] Closing listening thread
2014-05-22 21:51:06 [SERVER] [INFO] ydStudent left the game
2014-05-22 21:51:06 [SERVER] [INFO] Saving worlds
2014-05-22 21:51:06 [SERVER] [INFO] Saving chunks for level 'Troubleshoot 9'/Overworld
2014-05-22 21:51:06 [SERVER] [INFO] Saving chunks for level 'Troubleshoot 9'/Nether
2014-05-22 21:51:06 [SERVER] [INFO] Saving chunks for level 'Troubleshoot 9'/The End
2014-05-22 21:51:06 [SERVER] [INFO] Stopping server
2014-05-23 13:04:13 [SERVER] [INFO] Starting integrated minecraft server version 1.6.4
2014-05-23 13:04:13 [SERVER] [INFO] Generating keypair
2014-05-23 13:04:13 [SERVER] [INFO] Preparing start region for level 0
2014-05-23 13:04:14 [SERVER] [INFO] ydStudent[/127.0.0.1:0] logged in with entity id 28 at (124.05857925029696, 7.0, -686.6683610713125)
2014-05-23 13:04:14 [SERVER] [INFO] ydStudent joined the game
2014-05-23 13:04:37 [SERVER] [INFO] Saving and pausing game...
2014-05-23 13:04:37 [SERVER] [INFO] Saving chunks for level 'Troubleshoot 9'/Overworld
2014-05-23 13:04:38 [SERVER] [INFO] Saving chunks for level 'Troubleshoot 9'/Nether
2014-05-23 13:04:38 [SERVER] [INFO] Saving chunks for level 'Troubleshoot 9'/The End
2014-05-23 13:05:06 [SERVER] [INFO] Saving and pausing game...
2014-05-23 13:05:06 [SERVER] [INFO] Saving chunks for level 'Troubleshoot 9'/Overworld
2014-05-23 13:05:06 [SERVER] [INFO] Saving chunks for level 'Troubleshoot 9'/Nether
2014-05-23 13:05:06 [SERVER] [INFO] Saving chunks for level 'Troubleshoot 9'/The End
2014-05-23 13:05:57 [SERVER] [INFO] Stopping server
2014-05-23 13:05:57 [SERVER] [INFO] Saving players
2014-05-23 13:05:57 [SERVER] [INFO] ydStudent left the game
2014-05-23 13:05:57 [SERVER] [INFO] Saving worlds
2014-05-23 13:05:57 [SERVER] [INFO] Saving chunks for level 'Troubleshoot 9'/Overworld
2014-05-23 13:05:57 [SERVER] [INFO] Saving chunks for level 'Troubleshoot 9'/Nether
2014-05-23 13:05:57 [SERVER] [INFO] Saving chunks for level 'Troubleshoot 9'/The End
2014-05-23 13:05:57 [SERVER] [INFO] Stopping server
2014-05-23 13:21:13 [SERVER] [INFO] Starting integrated minecraft server version 1.6.4
2014-05-23 13:21:13 [SERVER] [INFO] Generating keypair
2014-05-23 13:21:13 [SERVER] [INFO] Converting map!
2014-05-23 13:21:13 [SERVER] [INFO] Scanning folders...
2014-05-23 13:21:13 [SERVER] [INFO] Total conversion count is 0
2014-05-23 13:21:13 [SERVER] [INFO] Preparing start region for level 0
2014-05-23 13:21:14 [SERVER] [INFO] Preparing spawn area: 15%
2014-05-23 13:21:15 [SERVER] [INFO] Preparing spawn area: 37%
2014-05-23 13:21:16 [SERVER] [INFO] Preparing spawn area: 59%
2014-05-23 13:21:17 [SERVER] [INFO] Preparing spawn area: 82%
2014-05-23 13:21:18 [SERVER] [INFO] ydStudent[/127.0.0.1:0] logged in with entity id 6248 at (-73.5, 74.0, 260.5)
2014-05-23 13:21:18 [SERVER] [INFO] ydStudent joined the game
2014-05-23 13:21:19 [SERVER] [INFO] Saving and pausing game...
2014-05-23 13:21:19 [SERVER] [INFO] Saving chunks for level 'New World'/Overworld
2014-05-23 13:21:26 [SERVER] [INFO] Saving chunks for level 'New World'/Nether
2014-05-23 13:21:26 [SERVER] [INFO] Saving chunks for level 'New World'/The End
2014-05-23 13:21:27 [SERVER] [WARNING] Can't keep up! Did the system time change, or is the server overloaded?
2014-05-23 13:22:23 [SERVER] [INFO] Saving and pausing game...
2014-05-23 13:22:23 [SERVER] [INFO] Saving chunks for level 'New World'/Overworld
2014-05-23 13:22:23 [SERVER] [INFO] Saving chunks for level 'New World'/Nether
2014-05-23 13:22:23 [SERVER] [INFO] Saving chunks for level 'New World'/The End
2014-05-23 13:24:20 [SERVER] [INFO] Stopping server
2014-05-23 13:24:20 [SERVER] [INFO] Saving players
2014-05-23 13:24:20 [SERVER] [INFO] ydStudent left the game
2014-05-23 13:24:20 [SERVER] [INFO] Saving worlds
2014-05-23 13:24:20 [SERVER] [INFO] Saving chunks for level 'New World'/Overworld
2014-05-23 13:24:20 [SERVER] [INFO] Saving chunks for level 'New World'/Nether
2014-05-23 13:24:20 [SERVER] [INFO] Saving chunks for level 'New World'/The End
2014-05-23 13:31:36 [SERVER] [INFO] Starting integrated minecraft server version 1.6.4
2014-05-23 13:31:36 [SERVER] [INFO] Generating keypair
2014-05-23 13:31:36 [SERVER] [INFO] Converting map!
2014-05-23 13:31:36 [SERVER] [INFO] Scanning folders...
2014-05-23 13:31:36 [SERVER] [INFO] Total conversion count is 0
2014-05-23 13:31:36 [SERVER] [INFO] Preparing start region for level 0
2014-05-23 13:31:37 [SERVER] [INFO] Preparing spawn area: 20%
2014-05-23 13:31:38 [SERVER] [INFO] Preparing spawn area: 49%
2014-05-23 13:31:39 [SERVER] [INFO] Preparing spawn area: 70%
2014-05-23 13:31:40 [SERVER] [INFO] Preparing spawn area: 94%
2014-05-23 13:31:41 [SERVER] [INFO] ydStudent[/127.0.0.1:0] logged in with entity id 14201 at (-22.5, 75.0, 251.5)
2014-05-23 13:31:41 [SERVER] [INFO] ydStudent joined the game
2014-05-23 13:33:01 [SERVER] [INFO] Saving and pausing game...
2014-05-23 13:33:01 [SERVER] [INFO] Saving chunks for level 'New World'/Overworld
2014-05-23 13:33:01 [SERVER] [INFO] Saving chunks for level 'New World'/Nether
2014-05-23 13:33:01 [SERVER] [INFO] Saving chunks for level 'New World'/The End
2014-05-23 13:33:03 [SERVER] [INFO] Stopping server
2014-05-23 13:33:03 [SERVER] [INFO] Saving players
2014-05-23 13:33:03 [SERVER] [INFO] ydStudent left the game
2014-05-23 13:33:03 [SERVER] [INFO] Saving worlds
2014-05-23 13:33:03 [SERVER] [INFO] Saving chunks for level 'New World'/Overworld
2014-05-23 13:33:03 [SERVER] [INFO] Saving chunks for level 'New World'/Nether
2014-05-23 13:33:03 [SERVER] [INFO] Saving chunks for level 'New World'/The End
2014-05-23 13:33:04 [SERVER] [INFO] Stopping server
2014-05-23 13:45:51 [SERVER] [INFO] Starting integrated minecraft server version 1.6.4
2014-05-23 13:45:51 [SERVER] [INFO] Generating keypair
2014-05-23 13:45:51 [SERVER] [INFO] Preparing start region for level 0
2014-05-23 13:45:52 [SERVER] [INFO] ydStudent[/127.0.0.1:0] logged in with entity id 250 at (84.8297236620836, 63.0, 332.2139779675797)
2014-05-23 13:45:52 [SERVER] [INFO] ydStudent joined the game
2014-05-23 13:47:24 [SERVER] [INFO] Stopping server
2014-05-23 13:47:24 [SERVER] [INFO] Saving players
2014-05-23 13:47:24 [SERVER] [INFO] ydStudent left the game
2014-05-23 13:47:24 [SERVER] [INFO] Saving worlds
2014-05-23 13:47:24 [SERVER] [INFO] Saving chunks for level 'New World'/Overworld
2014-05-23 13:47:24 [SERVER] [INFO] Saving chunks for level 'New World'/Nether
2014-05-23 13:47:24 [SERVER] [INFO] Saving chunks for level 'New World'/The End
2014-05-23 13:47:24 [SERVER] [INFO] Stopping server
2014-05-23 13:48:25 [SERVER] [INFO] Starting integrated minecraft server version 1.6.4
2014-05-23 13:48:25 [SERVER] [INFO] Generating keypair
2014-05-23 13:48:25 [SERVER] [INFO] Preparing start region for level 0
2014-05-23 13:48:26 [SERVER] [INFO] ydStudent[/127.0.0.1:0] logged in with entity id 264 at (93.67720549622524, 63.0, 427.1845016074881)
2014-05-23 13:48:26 [SERVER] [INFO] ydStudent joined the game
2014-05-23 13:48:27 [SERVER] [INFO] Saving and pausing game...
2014-05-23 13:48:27 [SERVER] [INFO] Saving chunks for level 'New World'/Overworld
2014-05-23 13:48:27 [SERVER] [INFO] Saving chunks for level 'New World'/Nether
2014-05-23 13:48:27 [SERVER] [INFO] Saving chunks for level 'New World'/The End
2014-05-23 13:50:58 [SERVER] [INFO] Saving and pausing game...
2014-05-23 13:50:58 [SERVER] [INFO] Saving chunks for level 'New World'/Overworld
2014-05-23 13:50:58 [SERVER] [INFO] Saving chunks for level 'New World'/Nether
2014-05-23 13:50:58 [SERVER] [INFO] Saving chunks for level 'New World'/The End
2014-05-23 13:51:46 [SERVER] [INFO] Stopping server
2014-05-23 13:51:46 [SERVER] [INFO] Saving players
2014-05-23 13:51:46 [SERVER] [INFO] ydStudent left the game
2014-05-23 13:51:46 [SERVER] [INFO] Saving worlds
2014-05-23 13:51:46 [SERVER] [INFO] Saving chunks for level 'New World'/Overworld
2014-05-23 13:51:46 [SERVER] [INFO] Saving chunks for level 'New World'/Nether
2014-05-23 13:51:46 [SERVER] [INFO] Saving chunks for level 'New World'/The End
2014-05-23 13:51:46 [SERVER] [INFO] Stopping server
2014-05-23 15:02:19 [SERVER] [INFO] Starting integrated minecraft server version 1.6.4
2014-05-23 15:02:19 [SERVER] [INFO] Generating keypair
2014-05-23 15:02:20 [SERVER] [INFO] Preparing start region for level 0
2014-05-23 15:02:20 [SERVER] [INFO] ydStudent[/127.0.0.1:0] logged in with entity id 28 at (124.52485488178698, 10.0, -714.6291360213304)
2014-05-23 15:02:20 [SERVER] [INFO] ydStudent joined the game
2014-05-23 15:03:17 [SERVER] [INFO] Saving and pausing game...
2014-05-23 15:03:17 [SERVER] [INFO] Saving chunks for level 'Troubleshoot 10'/Overworld
2014-05-23 15:03:17 [SERVER] [INFO] Saving chunks for level 'Troubleshoot 10'/Nether
2014-05-23 15:03:17 [SERVER] [INFO] Saving chunks for level 'Troubleshoot 10'/The End
2014-05-23 15:05:20 [SERVER] [INFO] Saving and pausing game...
2014-05-23 15:05:20 [SERVER] [INFO] Saving chunks for level 'Troubleshoot 10'/Overworld
2014-05-23 15:05:20 [SERVER] [INFO] Saving chunks for level 'Troubleshoot 10'/Nether
2014-05-23 15:05:20 [SERVER] [INFO] Saving chunks for level 'Troubleshoot 10'/The End
2014-05-23 15:05:23 [SERVER] [INFO] Stopping server
2014-05-23 15:05:23 [SERVER] [INFO] Saving players
2014-05-23 15:05:23 [SERVER] [INFO] ydStudent left the game
2014-05-23 15:05:23 [SERVER] [INFO] Saving worlds
2014-05-23 15:05:23 [SERVER] [INFO] Saving chunks for level 'Troubleshoot 10'/Overworld
2014-05-23 15:05:23 [SERVER] [INFO] Saving chunks for level 'Troubleshoot 10'/Nether
2014-05-23 15:05:23 [SERVER] [INFO] Saving chunks for level 'Troubleshoot 10'/The End
2014-05-23 15:05:23 [SERVER] [INFO] Stopping server
2014-05-23 15:06:02 [SERVER] [INFO] Starting integrated minecraft server version 1.6.4
2014-05-23 15:06:02 [SERVER] [INFO] Generating keypair
2014-05-23 15:06:02 [SERVER] [INFO] Preparing start region for level 0
2014-05-23 15:06:03 [SERVER] [INFO] ydStudent[/127.0.0.1:0] logged in with entity id 131 at (389.3545935294956, 106.49862924238364, 292.7468213515516)
2014-05-23 15:06:03 [SERVER] [INFO] ydStudent joined the game
2014-05-23 15:07:21 [SERVER] [INFO] Saving and pausing game...
2014-05-23 15:07:21 [SERVER] [INFO] Saving chunks for level 'New World'/Overworld
2014-05-23 15:07:21 [SERVER] [INFO] Saving chunks for level 'New World'/Nether
2014-05-23 15:07:21 [SERVER] [INFO] Saving chunks for level 'New World'/The End
2014-05-23 15:07:31 [SERVER] [INFO] Saving and pausing game...
2014-05-23 15:07:31 [SERVER] [INFO] Saving chunks for level 'New World'/Overworld
2014-05-23 15:07:31 [SERVER] [INFO] Saving chunks for level 'New World'/Nether
2014-05-23 15:07:31 [SERVER] [INFO] Saving chunks for level 'New World'/The End
2014-05-23 15:08:23 [SERVER] [INFO] Saving and pausing game...
2014-05-23 15:08:23 [SERVER] [INFO] Saving chunks for level 'New World'/Overworld
2014-05-23 15:08:23 [SERVER] [INFO] Saving chunks for level 'New World'/Nether
2014-05-23 15:08:23 [SERVER] [INFO] Saving chunks for level 'New World'/The End
2014-05-23 15:13:17 [SERVER] [INFO] Stopping server
2014-05-23 15:13:17 [SERVER] [INFO] Saving players
2014-05-23 15:13:17 [SERVER] [INFO] ydStudent left the game
2014-05-23 15:13:17 [SERVER] [INFO] Saving worlds
2014-05-23 15:13:17 [SERVER] [INFO] Saving chunks for level 'New World'/Overworld
2014-05-23 15:13:17 [SERVER] [INFO] Saving chunks for level 'New World'/Nether
2014-05-23 15:13:17 [SERVER] [INFO] Saving chunks for level 'New World'/The End
2014-05-23 15:13:18 [SERVER] [INFO] Stopping server
2014-05-23 16:55:01 [SERVER] [INFO] Starting integrated minecraft server version 1.6.4
2014-05-23 16:55:01 [SERVER] [INFO] Generating keypair
2014-05-23 16:55:01 [SERVER] [INFO] Converting map!
2014-05-23 16:55:01 [SERVER] [INFO] Scanning folders...
2014-05-23 16:55:01 [SERVER] [INFO] Total conversion count is 0
2014-05-23 16:55:01 [SERVER] [INFO] Preparing start region for level 0
2014-05-23 16:55:02 [SERVER] [INFO] Preparing spawn area: 18%
2014-05-23 16:55:03 [SERVER] [INFO] Preparing spawn area: 38%
2014-05-23 16:55:04 [SERVER] [INFO] Preparing spawn area: 61%
2014-05-23 16:55:05 [SERVER] [INFO] Preparing spawn area: 82%
2014-05-23 16:55:06 [SERVER] [INFO] ydStudent[/127.0.0.1:0] logged in with entity id 685 at (176.5, 69.0, 248.5)
2014-05-23 16:55:06 [SERVER] [INFO] ydStudent joined the game
2014-05-23 16:55:12 [SERVER] [INFO] Saving and pausing game...
2014-05-23 16:55:12 [SERVER] [INFO] Saving chunks for level 'New World'/Overworld
2014-05-23 16:55:15 [SERVER] [INFO] Started on 60586
2014-05-23 16:55:17 [SERVER] [INFO] Saving chunks for level 'New World'/Nether
2014-05-23 16:55:17 [SERVER] [INFO] Saving chunks for level 'New World'/The End
2014-05-23 16:55:17 [SERVER] [WARNING] Can't keep up! Did the system time change, or is the server overloaded?
2014-05-23 16:55:21 [SERVER] [INFO] [ydStudent: Set own game mode to Creative Mode]
2014-05-23 16:55:36 [SERVER] [INFO] Stopping server
2014-05-23 16:55:36 [SERVER] [INFO] Stopping server connection
2014-05-23 16:55:36 [SERVER] [INFO] Saving players
2014-05-23 16:55:36 [SERVER] [INFO] Closing listening thread
2014-05-23 16:55:36 [SERVER] [INFO] ydStudent left the game
2014-05-23 16:55:36 [SERVER] [INFO] Saving worlds
2014-05-23 16:55:36 [SERVER] [INFO] Saving chunks for level 'New World'/Overworld
2014-05-23 16:55:36 [SERVER] [INFO] Saving chunks for level 'New World'/Nether
2014-05-23 16:55:36 [SERVER] [INFO] Saving chunks for level 'New World'/The End
