2014-06-02 20:48:42 [CLIENT] [INFO] Setting user: ydStudent
2014-06-02 20:48:43 [CLIENT] [INFO] LWJGL Version: 2.9.0
2014-06-02 20:48:43 [CLIENT] [INFO] Reloading ResourceManager: Default
2014-06-02 20:48:45 [CLIENT] [INFO] Reloading ResourceManager: Default, FMLFileResourcePack:Forge Mod Loader, FMLFileResourcePack:Minecraft Forge, FMLFileResourcePack:ALL-U-WANT mod
