2014-05-23 13:24:25 [SERVER] [INFO] Starting integrated minecraft server version 1.6.4
2014-05-23 13:24:25 [SERVER] [INFO] Generating keypair
2014-05-23 13:24:25 [SERVER] [INFO] Converting map!
2014-05-23 13:24:25 [SERVER] [INFO] Scanning folders...
2014-05-23 13:24:25 [SERVER] [INFO] Total conversion count is 0
2014-05-23 13:24:25 [SERVER] [INFO] Preparing start region for level 0
2014-05-23 13:24:26 [SERVER] [INFO] Preparing spawn area: 24%
2014-05-23 13:24:27 [SERVER] [INFO] Preparing spawn area: 43%
2014-05-23 13:24:28 [SERVER] [INFO] Preparing spawn area: 60%
2014-05-23 13:24:29 [SERVER] [INFO] Preparing spawn area: 74%
2014-05-23 13:24:30 [SERVER] [INFO] Preparing spawn area: 91%
2014-05-23 13:24:31 [SERVER] [INFO] ydStudent[/127.0.0.1:0] logged in with entity id 16530 at (-218.5, 73.0, 259.5)
2014-05-23 13:24:31 [SERVER] [INFO] ydStudent joined the game
2014-05-23 13:24:32 [SERVER] [INFO] Saving and pausing game...
2014-05-23 13:24:32 [SERVER] [INFO] Saving chunks for level 'New World'/Overworld
2014-05-23 13:24:39 [SERVER] [INFO] Saving chunks for level 'New World'/Nether
2014-05-23 13:24:39 [SERVER] [INFO] Saving chunks for level 'New World'/The End
2014-05-23 13:24:39 [SERVER] [INFO] Stopping server
2014-05-23 13:24:39 [SERVER] [INFO] Saving players
2014-05-23 13:24:39 [SERVER] [INFO] ydStudent left the game
2014-05-23 13:24:39 [SERVER] [INFO] Saving worlds
2014-05-23 13:24:39 [SERVER] [INFO] Saving chunks for level 'New World'/Overworld
2014-05-23 13:24:39 [SERVER] [INFO] Saving chunks for level 'New World'/Nether
2014-05-23 13:24:39 [SERVER] [INFO] Saving chunks for level 'New World'/The End
