2014-06-02 20:41:37 [CLIENT] [INFO] Setting user: ydStudent
2014-06-02 20:41:37 [CLIENT] [INFO] LWJGL Version: 2.9.0
2014-06-02 20:41:38 [CLIENT] [INFO] Reloading ResourceManager: Default
2014-06-02 20:41:40 [CLIENT] [INFO] Reloading ResourceManager: Default, FMLFileResourcePack:Forge Mod Loader, FMLFileResourcePack:Minecraft Forge, FMLFileResourcePack:ALL-U-WANT mod
2014-06-02 20:46:04 [CLIENT] [INFO] Setting user: ydStudent
2014-06-02 20:46:04 [CLIENT] [INFO] LWJGL Version: 2.9.0
2014-06-02 20:46:05 [CLIENT] [INFO] Reloading ResourceManager: Default
2014-06-02 20:46:07 [CLIENT] [INFO] Reloading ResourceManager: Default, FMLFileResourcePack:Forge Mod Loader, FMLFileResourcePack:Minecraft Forge, FMLFileResourcePack:ALL-U-WANT mod
