2014-06-02 20:42:24 [CLIENT] [INFO] Setting user: ydStudent
2014-06-02 20:42:24 [CLIENT] [INFO] LWJGL Version: 2.9.0
2014-06-02 20:42:25 [CLIENT] [INFO] Reloading ResourceManager: Default
2014-06-02 20:42:27 [CLIENT] [INFO] Reloading ResourceManager: Default, FMLFileResourcePack:Forge Mod Loader, FMLFileResourcePack:Minecraft Forge, FMLFileResourcePack:ALL-U-WANT mod
2014-06-02 20:47:01 [CLIENT] [INFO] Setting user: ydStudent
2014-06-02 20:47:01 [CLIENT] [INFO] LWJGL Version: 2.9.0
2014-06-02 20:47:02 [CLIENT] [INFO] Reloading ResourceManager: Default
2014-06-02 20:47:04 [CLIENT] [INFO] Reloading ResourceManager: Default, FMLFileResourcePack:Forge Mod Loader, FMLFileResourcePack:Minecraft Forge, FMLFileResourcePack:ALL-U-WANT mod
