2014-05-23 13:27:18 [SERVER] [INFO] Starting integrated minecraft server version 1.6.4
2014-05-23 13:27:18 [SERVER] [INFO] Generating keypair
2014-05-23 13:27:18 [SERVER] [INFO] Converting map!
2014-05-23 13:27:18 [SERVER] [INFO] Scanning folders...
2014-05-23 13:27:18 [SERVER] [INFO] Total conversion count is 0
2014-05-23 13:27:18 [SERVER] [INFO] Preparing start region for level 0
2014-05-23 13:27:19 [SERVER] [INFO] Preparing spawn area: 26%
2014-05-23 13:27:20 [SERVER] [INFO] Preparing spawn area: 49%
2014-05-23 13:27:21 [SERVER] [INFO] Preparing spawn area: 72%
2014-05-23 13:27:22 [SERVER] [INFO] Preparing spawn area: 94%
2014-05-23 13:27:22 [SERVER] [INFO] ydStudent[/127.0.0.1:0] logged in with entity id 29016 at (113.5, 66.0, 256.5)
2014-05-23 13:27:22 [SERVER] [INFO] ydStudent joined the game
2014-05-23 13:27:24 [SERVER] [INFO] Saving and pausing game...
2014-05-23 13:27:24 [SERVER] [INFO] Saving chunks for level 'New World'/Overworld
2014-05-23 13:27:30 [SERVER] [INFO] Saving chunks for level 'New World'/Nether
2014-05-23 13:27:30 [SERVER] [INFO] Saving chunks for level 'New World'/The End
2014-05-23 13:27:30 [SERVER] [INFO] Stopping server
2014-05-23 13:27:30 [SERVER] [INFO] Saving players
2014-05-23 13:27:30 [SERVER] [INFO] ydStudent left the game
2014-05-23 13:27:30 [SERVER] [INFO] Saving worlds
2014-05-23 13:27:30 [SERVER] [INFO] Saving chunks for level 'New World'/Overworld
2014-05-23 13:27:30 [SERVER] [INFO] Saving chunks for level 'New World'/Nether
2014-05-23 13:27:30 [SERVER] [INFO] Saving chunks for level 'New World'/The End
