2014-05-23 13:29:32 [SERVER] [INFO] Starting integrated minecraft server version 1.6.4
2014-05-23 13:29:32 [SERVER] [INFO] Generating keypair
2014-05-23 13:29:32 [SERVER] [INFO] Converting map!
2014-05-23 13:29:32 [SERVER] [INFO] Scanning folders...
2014-05-23 13:29:32 [SERVER] [INFO] Total conversion count is 0
2014-05-23 13:29:33 [SERVER] [INFO] Preparing start region for level 0
2014-05-23 13:29:34 [SERVER] [INFO] Preparing spawn area: 28%
2014-05-23 13:29:35 [SERVER] [INFO] Preparing spawn area: 50%
2014-05-23 13:29:36 [SERVER] [INFO] Preparing spawn area: 72%
2014-05-23 13:29:37 [SERVER] [INFO] Preparing spawn area: 99%
2014-05-23 13:29:37 [SERVER] [INFO] ydStudent[/127.0.0.1:0] logged in with entity id 37109 at (-172.5, 68.0, 254.5)
2014-05-23 13:29:37 [SERVER] [INFO] ydStudent joined the game
2014-05-23 13:30:06 [SERVER] [INFO] Stopping server
2014-05-23 13:30:06 [SERVER] [INFO] Saving players
2014-05-23 13:30:06 [SERVER] [INFO] ydStudent left the game
2014-05-23 13:30:06 [SERVER] [INFO] Saving worlds
2014-05-23 13:30:06 [SERVER] [INFO] Saving chunks for level 'New World'/Overworld
2014-05-23 13:30:06 [SERVER] [INFO] Saving chunks for level 'New World'/Nether
2014-05-23 13:30:06 [SERVER] [INFO] Saving chunks for level 'New World'/The End
2014-05-23 13:30:06 [SERVER] [INFO] Stopping server
