2014-05-23 13:27:43 [SERVER] [INFO] Starting integrated minecraft server version 1.6.4
2014-05-23 13:27:43 [SERVER] [INFO] Generating keypair
2014-05-23 13:27:43 [SERVER] [INFO] Converting map!
2014-05-23 13:27:43 [SERVER] [INFO] Scanning folders...
2014-05-23 13:27:43 [SERVER] [INFO] Total conversion count is 0
2014-05-23 13:27:43 [SERVER] [INFO] Preparing start region for level 0
2014-05-23 13:27:44 [SERVER] [INFO] Preparing spawn area: 25%
2014-05-23 13:27:45 [SERVER] [INFO] Preparing spawn area: 48%
2014-05-23 13:27:46 [SERVER] [INFO] Preparing spawn area: 72%
2014-05-23 13:27:47 [SERVER] [INFO] Preparing spawn area: 95%
2014-05-23 13:27:48 [SERVER] [INFO] ydStudent[/127.0.0.1:0] logged in with entity id 29605 at (202.5, 64.0, 253.5)
2014-05-23 13:27:48 [SERVER] [INFO] ydStudent joined the game
2014-05-23 13:27:49 [SERVER] [INFO] Saving and pausing game...
2014-05-23 13:27:49 [SERVER] [INFO] Saving chunks for level 'New World'/Overworld
2014-05-23 13:27:56 [SERVER] [INFO] Saving chunks for level 'New World'/Nether
2014-05-23 13:27:56 [SERVER] [INFO] Saving chunks for level 'New World'/The End
2014-05-23 13:27:56 [SERVER] [INFO] Stopping server
2014-05-23 13:27:56 [SERVER] [INFO] Saving players
2014-05-23 13:27:56 [SERVER] [INFO] ydStudent left the game
2014-05-23 13:27:56 [SERVER] [INFO] Saving worlds
2014-05-23 13:27:56 [SERVER] [INFO] Saving chunks for level 'New World'/Overworld
2014-05-23 13:27:56 [SERVER] [INFO] Saving chunks for level 'New World'/Nether
2014-05-23 13:27:56 [SERVER] [INFO] Saving chunks for level 'New World'/The End
